# Blender v2.69 (sub 0) OBJ File: ''
# www.blender.org
mtllib meshcube.mtl
o Cube_Cube.003
v -1.148129 1.769355 0.701251
v -1.148129 1.769355 -0.701251
v 0.254374 1.769355 -0.701251
v 0.254374 1.769355 0.701251
v -1.148129 3.171858 0.701251
v -1.148129 3.171858 -0.701251
v 0.254374 3.171858 -0.701251
v 0.254374 3.171858 0.701251
v -1.148129 2.470607 0.701251
v -1.148129 3.171858 0.000000
v -1.148129 2.470607 -0.701251
v -1.148129 1.769355 0.000000
v -0.446877 3.171858 -0.701251
v 0.254374 2.470607 -0.701251
v -0.446877 1.769355 -0.701251
v 0.254374 3.171858 0.000000
v 0.254374 2.470607 0.701251
v 0.254374 1.769355 0.000000
v -0.446877 3.171858 0.701251
v -0.446877 1.769355 0.701251
v -1.148129 2.470607 0.000000
v -0.446877 2.470607 -0.701251
v 0.254374 2.470607 0.000000
v -0.446877 2.470607 0.701251
v -0.446877 1.769355 0.000000
v -0.446877 3.171858 0.000000
v -1.148129 2.821232 0.701251
v -1.148129 3.171858 -0.350626
v -1.148129 2.119981 -0.701251
v -1.148129 1.769355 0.350626
v -0.096252 3.171858 -0.701251
v 0.254374 2.119981 -0.701251
v -0.797503 1.769355 -0.701251
v 0.254374 3.171858 0.350626
v 0.254374 2.119981 0.701251
v 0.254374 1.769355 -0.350626
v -0.797503 3.171858 0.701251
v -0.096252 1.769355 0.701251
v -1.148129 2.119981 0.701251
v -1.148129 3.171858 0.350626
v -1.148129 2.821232 -0.701251
v -1.148129 1.769355 -0.350626
v -0.797503 3.171858 -0.701251
v 0.254374 2.821232 -0.701251
v -0.096252 1.769355 -0.701251
v 0.254374 3.171858 -0.350626
v 0.254374 2.821232 0.701251
v 0.254374 1.769355 0.350626
v -0.096252 3.171858 0.701251
v -0.797503 1.769355 0.701251
v -1.148129 2.119981 0.000000
v -1.148129 2.821232 0.000000
v -1.148129 2.470607 0.350626
v -1.148129 2.470607 -0.350626
v -0.446877 2.119981 -0.701251
v -0.446877 2.821232 -0.701251
v -0.797503 2.470607 -0.701251
v -0.096252 2.470607 -0.701251
v 0.254374 2.119981 0.000000
v 0.254374 2.821232 0.000000
v 0.254374 2.470607 -0.350626
v 0.254374 2.470607 0.350626
v -0.446877 2.119981 0.701251
v -0.446877 2.821232 0.701251
v -0.096252 2.470607 0.701251
v -0.797503 2.470607 0.701251
v -0.096252 1.769355 0.000000
v -0.797503 1.769355 0.000000
v -0.446877 1.769355 0.350626
v -0.446877 1.769355 -0.350626
v -0.797503 3.171858 0.000000
v -0.096252 3.171858 0.000000
v -0.446877 3.171858 0.350626
v -0.446877 3.171858 -0.350626
v -1.148129 2.119981 -0.350626
v -0.096252 2.119981 -0.701251
v 0.254374 2.119981 0.350626
v -0.797503 2.119981 0.701251
v -0.096252 1.769355 -0.350626
v -0.797503 3.171858 -0.350626
v -1.148129 2.119981 0.350626
v -1.148129 2.821232 0.350626
v -1.148129 2.821232 -0.350626
v -0.797503 2.119981 -0.701251
v -0.797503 2.821232 -0.701251
v -0.096252 2.821232 -0.701251
v 0.254374 2.119981 -0.350626
v 0.254374 2.821232 -0.350626
v 0.254374 2.821232 0.350626
v -0.096252 2.119981 0.701251
v -0.096252 2.821232 0.701251
v -0.797503 2.821232 0.701251
v -0.096252 1.769355 0.350626
v -0.797503 1.769355 0.350626
v -0.797503 1.769355 -0.350626
v -0.797503 3.171858 0.350626
v -0.096252 3.171858 0.350626
v -0.096252 3.171858 -0.350626
v -1.148129 2.996545 0.701251
v -1.148129 3.171858 -0.525939
v -1.148129 1.944668 -0.701251
v -1.148129 1.769355 0.525939
v 0.079061 3.171858 -0.701251
v 0.254374 1.944668 -0.701251
v -0.972816 1.769355 -0.701251
v 0.254374 3.171858 0.525939
v 0.254374 1.944668 0.701251
v 0.254374 1.769355 -0.525939
v -0.972816 3.171858 0.701251
v 0.079061 1.769355 0.701251
v -1.148129 1.944668 0.701251
v -1.148129 3.171858 0.525939
v -1.148129 2.996545 -0.701251
v -1.148129 1.769355 -0.525939
v -0.972816 3.171858 -0.701251
v 0.254374 2.996545 -0.701251
v 0.079061 1.769355 -0.701251
v 0.254374 3.171858 -0.525939
v 0.254374 2.996545 0.701251
v 0.254374 1.769355 0.525939
v 0.079061 3.171858 0.701251
v -0.972816 1.769355 0.701251
v -1.148129 1.944668 0.000000
v -1.148129 2.996545 0.000000
v -1.148129 2.470607 0.525939
v -1.148129 2.470607 -0.175313
v -0.446877 1.944668 -0.701251
v -0.446877 2.996545 -0.701251
v -0.972816 2.470607 -0.701251
v -0.271564 2.470607 -0.701251
v 0.254374 1.944668 0.000000
v 0.254374 2.996545 0.000000
v 0.254374 2.470607 -0.525939
v 0.254374 2.470607 0.175313
v -0.446877 1.944668 0.701251
v -0.446877 2.996545 0.701251
v 0.079061 2.470607 0.701251
v -0.622190 2.470607 0.701251
v 0.079061 1.769355 0.000000
v -0.972816 1.769355 0.000000
v -0.446877 1.769355 0.525939
v -0.446877 1.769355 -0.175313
v -0.972816 3.171858 0.000000
v 0.079061 3.171858 0.000000
v -0.446877 3.171858 0.525939
v -0.446877 3.171858 -0.175313
v -1.148129 2.645919 0.701251
v -1.148129 3.171858 -0.175313
v -1.148129 2.295294 -0.701251
v -1.148129 1.769355 0.175313
v -0.271564 3.171858 -0.701251
v 0.254374 2.295294 -0.701251
v -0.622190 1.769355 -0.701251
v 0.254374 3.171858 0.175313
v 0.254374 2.295294 0.701251
v 0.254374 1.769355 -0.175313
v -0.622190 3.171858 0.701251
v -0.271564 1.769355 0.701251
v -1.148129 2.295294 0.701251
v -1.148129 3.171858 0.175313
v -1.148129 2.645919 -0.701251
v -1.148129 1.769355 -0.175313
v -0.622190 3.171858 -0.701251
v 0.254374 2.645919 -0.701251
v -0.271564 1.769355 -0.701251
v 0.254374 3.171858 -0.175313
v 0.254374 2.645919 0.701251
v 0.254374 1.769355 0.175313
v -0.271564 3.171858 0.701251
v -0.622190 1.769355 0.701251
v -1.148129 2.295294 0.000000
v -1.148129 2.645919 0.000000
v -1.148129 2.470607 0.175313
v -1.148129 2.470607 -0.525939
v -0.446877 2.295294 -0.701251
v -0.446877 2.645919 -0.701251
v -0.622190 2.470607 -0.701251
v 0.079061 2.470607 -0.701251
v 0.254374 2.295294 0.000000
v 0.254374 2.645919 0.000000
v 0.254374 2.470607 -0.175313
v 0.254374 2.470607 0.525939
v -0.446877 2.295294 0.701251
v -0.446877 2.645919 0.701251
v -0.271564 2.470607 0.701251
v -0.972816 2.470607 0.701251
v -0.271564 1.769355 0.000000
v -0.622190 1.769355 0.000000
v -0.446877 1.769355 0.175313
v -0.446877 1.769355 -0.525939
v -0.622190 3.171858 0.000000
v -0.271564 3.171858 0.000000
v -0.446877 3.171858 0.175313
v -0.446877 3.171858 -0.525939
v -1.148129 1.944668 -0.350626
v -1.148129 2.295294 -0.350626
v -1.148129 2.119981 -0.175313
v -1.148129 2.119981 -0.525939
v -0.096252 1.944668 -0.701251
v -0.096252 2.295294 -0.701251
v -0.271564 2.119981 -0.701251
v 0.079061 2.119981 -0.701251
v 0.254374 1.944668 0.350626
v 0.254374 2.295294 0.350626
v 0.254374 2.119981 0.175313
v 0.254374 2.119981 0.525939
v -0.797503 1.944668 0.701251
v -0.797503 2.295294 0.701251
v -0.622190 2.119981 0.701251
v -0.972816 2.119981 0.701251
v 0.079061 1.769355 -0.350626
v -0.271564 1.769355 -0.350626
v -0.096252 1.769355 -0.175313
v -0.096252 1.769355 -0.525939
v -0.972816 3.171858 -0.350626
v -0.622190 3.171858 -0.350626
v -0.797503 3.171858 -0.175313
v -0.797503 3.171858 -0.525939
v -1.148129 1.944668 0.350626
v -1.148129 2.295294 0.350626
v -1.148129 2.119981 0.525939
v -1.148129 2.119981 0.175313
v -1.148129 2.645919 0.350626
v -1.148129 2.996545 0.350626
v -1.148129 2.821232 0.525939
v -1.148129 2.821232 0.175313
v -1.148129 2.645919 -0.350626
v -1.148129 2.996545 -0.350626
v -1.148129 2.821232 -0.175313
v -1.148129 2.821232 -0.525939
v -0.797503 1.944668 -0.701251
v -0.797503 2.295294 -0.701251
v -0.972816 2.119981 -0.701251
v -0.622190 2.119981 -0.701251
v -0.797503 2.645919 -0.701251
v -0.797503 2.996545 -0.701251
v -0.972816 2.821232 -0.701251
v -0.622190 2.821232 -0.701251
v -0.096252 2.645919 -0.701251
v -0.096252 2.996545 -0.701251
v -0.271564 2.821232 -0.701251
v 0.079061 2.821232 -0.701251
v 0.254374 1.944668 -0.350626
v 0.254374 2.295294 -0.350626
v 0.254374 2.119981 -0.525939
v 0.254374 2.119981 -0.175313
v 0.254374 2.645919 -0.350626
v 0.254374 2.996545 -0.350626
v 0.254374 2.821232 -0.525939
v 0.254374 2.821232 -0.175313
v 0.254374 2.645919 0.350626
v 0.254374 2.996545 0.350626
v 0.254374 2.821232 0.175313
v 0.254374 2.821232 0.525939
v -0.096252 1.944668 0.701251
v -0.096252 2.295294 0.701251
v 0.079061 2.119981 0.701251
v -0.271564 2.119981 0.701251
v -0.096252 2.645919 0.701251
v -0.096252 2.996545 0.701251
v 0.079061 2.821232 0.701251
v -0.271564 2.821232 0.701251
v -0.797503 2.645919 0.701251
v -0.797503 2.996545 0.701251
v -0.622190 2.821232 0.701251
v -0.972816 2.821232 0.701251
v 0.079061 1.769355 0.350626
v -0.271564 1.769355 0.350626
v -0.096252 1.769355 0.525939
v -0.096252 1.769355 0.175313
v -0.622190 1.769355 0.350626
v -0.972816 1.769355 0.350626
v -0.797503 1.769355 0.525939
v -0.797503 1.769355 0.175313
v -0.622190 1.769355 -0.350626
v -0.972816 1.769355 -0.350626
v -0.797503 1.769355 -0.175313
v -0.797503 1.769355 -0.525939
v -0.972816 3.171858 0.350626
v -0.622190 3.171858 0.350626
v -0.797503 3.171858 0.525939
v -0.797503 3.171858 0.175313
v -0.271564 3.171858 0.350626
v 0.079061 3.171858 0.350626
v -0.096252 3.171858 0.525939
v -0.096252 3.171858 0.175313
v -0.271564 3.171858 -0.350626
v 0.079061 3.171858 -0.350626
v -0.096252 3.171858 -0.175313
v -0.096252 3.171858 -0.525939
v -1.148129 1.944668 -0.525939
v 0.079061 1.944668 -0.701251
v 0.254374 1.944668 0.525939
v -0.972816 1.944668 0.701251
v 0.079061 1.769355 -0.525939
v -0.972816 3.171858 -0.525939
v -1.148129 1.944668 0.175313
v -1.148129 2.645919 0.175313
v -1.148129 2.645919 -0.525939
v -0.622190 1.944668 -0.701251
v -0.622190 2.645919 -0.701251
v 0.079061 2.645919 -0.701251
v 0.254374 1.944668 -0.175313
v 0.254374 2.645919 -0.175313
v 0.254374 2.645919 0.525939
v -0.271564 1.944668 0.701251
v -0.271564 2.645919 0.701251
v -0.972816 2.645919 0.701251
v 0.079061 1.769355 0.175313
v -0.622190 1.769355 0.175313
v -0.622190 1.769355 -0.525939
v -0.972816 3.171858 0.175313
v -0.271564 3.171858 0.175313
v -0.271564 3.171858 -0.525939
v -1.148129 1.944668 -0.175313
v -1.148129 2.295294 -0.175313
v -1.148129 2.295294 -0.525939
v -0.271564 1.944668 -0.701251
v -0.271564 2.295294 -0.701251
v 0.079061 2.295294 -0.701251
v 0.254374 1.944668 0.175313
v 0.254374 2.295294 0.175313
v 0.254374 2.295294 0.525939
v -0.622190 1.944668 0.701251
v -0.622190 2.295294 0.701251
v -0.972816 2.295294 0.701251
v 0.079061 1.769355 -0.175313
v -0.271564 1.769355 -0.175313
v -0.271564 1.769355 -0.525939
v -0.972816 3.171858 -0.175313
v -0.622190 3.171858 -0.175313
v -0.622190 3.171858 -0.525939
v -1.148129 1.944668 0.525939
v -1.148129 2.295294 0.525939
v -1.148129 2.295294 0.175313
v -1.148129 2.645919 0.525939
v -1.148129 2.996545 0.525939
v -1.148129 2.996545 0.175313
v -1.148129 2.645919 -0.175313
v -1.148129 2.996545 -0.175313
v -1.148129 2.996545 -0.525939
v -0.972816 1.944668 -0.701251
v -0.972816 2.295294 -0.701251
v -0.622190 2.295294 -0.701251
v -0.972816 2.645919 -0.701251
v -0.972816 2.996545 -0.701251
v -0.622190 2.996545 -0.701251
v -0.271564 2.645919 -0.701251
v -0.271564 2.996545 -0.701251
v 0.079061 2.996545 -0.701251
v 0.254374 1.944668 -0.525939
v 0.254374 2.295294 -0.525939
v 0.254374 2.295294 -0.175313
v 0.254374 2.645919 -0.525939
v 0.254374 2.996545 -0.525939
v 0.254374 2.996545 -0.175313
v 0.254374 2.645919 0.175313
v 0.254374 2.996545 0.175313
v 0.254374 2.996545 0.525939
v 0.079061 1.944668 0.701251
v 0.079061 2.295294 0.701251
v -0.271564 2.295294 0.701251
v 0.079061 2.645919 0.701251
v 0.079061 2.996545 0.701251
v -0.271564 2.996545 0.701251
v -0.622190 2.645919 0.701251
v -0.622190 2.996545 0.701251
v -0.972816 2.996545 0.701251
v 0.079061 1.769355 0.525939
v -0.271564 1.769355 0.525939
v -0.271564 1.769355 0.175313
v -0.622190 1.769355 0.525939
v -0.972816 1.769355 0.525939
v -0.972816 1.769355 0.175313
v -0.622190 1.769355 -0.175313
v -0.972816 1.769355 -0.175313
v -0.972816 1.769355 -0.525939
v -0.972816 3.171858 0.525939
v -0.622190 3.171858 0.525939
v -0.622190 3.171858 0.175313
v -0.271564 3.171858 0.525939
v 0.079061 3.171858 0.525939
v 0.079061 3.171858 0.175313
v -0.271564 3.171858 -0.175313
v 0.079061 3.171858 -0.175313
v 0.079061 3.171858 -0.525939
v -1.148129 3.084202 0.701251
v -1.148129 3.171858 -0.613595
v -1.148129 1.857012 -0.701251
v -1.148129 1.769355 0.613595
v 0.166718 3.171858 -0.701251
v 0.254374 1.857012 -0.701251
v -1.060472 1.769355 -0.701251
v 0.254374 3.171858 0.613595
v 0.254374 1.857012 0.701251
v 0.254374 1.769355 -0.613595
v -1.060472 3.171858 0.701251
v 0.166718 1.769355 0.701251
v -1.148129 1.857012 0.701251
v -1.148129 3.171858 0.613595
v -1.148129 3.084202 -0.701251
v -1.148129 1.769355 -0.613595
v -1.060472 3.171858 -0.701251
v 0.254374 3.084202 -0.701251
v 0.166718 1.769355 -0.701251
v 0.254374 3.171858 -0.613595
v 0.254374 3.084202 0.701251
v 0.254374 1.769355 0.613595
v 0.166718 3.171858 0.701251
v -1.060472 1.769355 0.701251
v -1.148129 1.857012 0.000000
v -1.148129 3.084202 0.000000
v -1.148129 2.470607 0.613595
v -1.148129 2.470607 -0.087656
v -0.446877 1.857012 -0.701251
v -0.446877 3.084202 -0.701251
v -1.060472 2.470607 -0.701251
v -0.359221 2.470607 -0.701251
v 0.254374 1.857012 0.000000
v 0.254374 3.084202 0.000000
v 0.254374 2.470607 -0.613595
v 0.254374 2.470607 0.087656
v -0.446877 1.857012 0.701251
v -0.446877 3.084202 0.701251
v 0.166718 2.470607 0.701251
v -0.534534 2.470607 0.701251
v 0.166718 1.769355 0.000000
v -1.060472 1.769355 0.000000
v -0.446877 1.769355 0.613595
v -0.446877 1.769355 -0.087656
v -1.060472 3.171858 0.000000
v 0.166718 3.171858 0.000000
v -0.446877 3.171858 0.613595
v -0.446877 3.171858 -0.087656
v -1.148129 2.558263 0.701251
v -1.148129 3.171858 -0.087656
v -1.148129 2.382950 -0.701251
v -1.148129 1.769355 0.087656
v -0.359221 3.171858 -0.701251
v 0.254374 2.382950 -0.701251
v -0.534534 1.769355 -0.701251
v 0.254374 3.171858 0.087656
v 0.254374 2.382950 0.701251
v 0.254374 1.769355 -0.087656
v -0.534534 3.171858 0.701251
v -0.359221 1.769355 0.701251
v -1.148129 2.382950 0.701251
v -1.148129 3.171858 0.087656
v -1.148129 2.558263 -0.701251
v -1.148129 1.769355 -0.087656
v -0.534534 3.171858 -0.701251
v 0.254374 2.558263 -0.701251
v -0.359221 1.769355 -0.701251
v 0.254374 3.171858 -0.087656
v 0.254374 2.558263 0.701251
v 0.254374 1.769355 0.087656
v -0.359221 3.171858 0.701251
v -0.534534 1.769355 0.701251
v -1.148129 2.382950 0.000000
v -1.148129 2.558263 0.000000
v -1.148129 2.470607 0.087656
v -1.148129 2.470607 -0.613595
v -0.446877 2.382950 -0.701251
v -0.446877 2.558263 -0.701251
v -0.534534 2.470607 -0.701251
v 0.166718 2.470607 -0.701251
v 0.254374 2.382950 0.000000
v 0.254374 2.558263 0.000000
v 0.254374 2.470607 -0.087656
v 0.254374 2.470607 0.613595
v -0.446877 2.382950 0.701251
v -0.446877 2.558263 0.701251
v -0.359221 2.470607 0.701251
v -1.060472 2.470607 0.701251
v -0.359221 1.769355 0.000000
v -0.534534 1.769355 0.000000
v -0.446877 1.769355 0.087656
v -0.446877 1.769355 -0.613595
v -0.534534 3.171858 0.000000
v -0.359221 3.171858 0.000000
v -0.446877 3.171858 0.087656
v -0.446877 3.171858 -0.613595
v -1.148129 1.857012 -0.350626
v -1.148129 2.382950 -0.350626
v -1.148129 2.119981 -0.087656
v -1.148129 2.119981 -0.438282
v -0.096252 1.857012 -0.701251
v -0.096252 2.382950 -0.701251
v -0.359221 2.119981 -0.701251
v -0.008595 2.119981 -0.701251
v 0.254374 1.857012 0.350626
v 0.254374 2.382950 0.350626
v 0.254374 2.119981 0.087656
v 0.254374 2.119981 0.438282
v -0.797503 1.857012 0.701251
v -0.797503 2.382950 0.701251
v -0.534534 2.119981 0.701251
v -0.885159 2.119981 0.701251
v 0.166718 1.769355 -0.350626
v -0.359221 1.769355 -0.350626
v -0.096252 1.769355 -0.087656
v -0.096252 1.769355 -0.438282
v -1.060472 3.171858 -0.350626
v -0.534534 3.171858 -0.350626
v -0.797503 3.171858 -0.087656
v -0.797503 3.171858 -0.438282
v -1.148129 1.857012 0.350626
v -1.148129 2.382950 0.350626
v -1.148129 2.119981 0.613595
v -1.148129 2.119981 0.262969
v -1.148129 2.558263 0.350626
v -1.148129 3.084202 0.350626
v -1.148129 2.821232 0.613595
v -1.148129 2.821232 0.262969
v -1.148129 2.558263 -0.350626
v -1.148129 3.084202 -0.350626
v -1.148129 2.821232 -0.087656
v -1.148129 2.821232 -0.438282
v -0.797503 1.857012 -0.701251
v -0.797503 2.382950 -0.701251
v -1.060472 2.119981 -0.701251
v -0.709847 2.119981 -0.701251
v -0.797503 2.558263 -0.701251
v -0.797503 3.084202 -0.701251
v -1.060472 2.821232 -0.701251
v -0.709847 2.821232 -0.701251
v -0.096252 2.558263 -0.701251
v -0.096252 3.084202 -0.701251
v -0.359221 2.821232 -0.701251
v -0.008595 2.821232 -0.701251
v 0.254374 1.857012 -0.350626
v 0.254374 2.382950 -0.350626
v 0.254374 2.119981 -0.613595
v 0.254374 2.119981 -0.262969
v 0.254374 2.558263 -0.350626
v 0.254374 3.084202 -0.350626
v 0.254374 2.821232 -0.613595
v 0.254374 2.821232 -0.262969
v 0.254374 2.558263 0.350626
v 0.254374 3.084202 0.350626
v 0.254374 2.821232 0.087656
v 0.254374 2.821232 0.438282
v -0.096252 1.857012 0.701251
v -0.096252 2.382950 0.701251
v 0.166718 2.119981 0.701251
v -0.183908 2.119981 0.701251
v -0.096252 2.558263 0.701251
v -0.096252 3.084202 0.701251
v 0.166718 2.821232 0.701251
v -0.183908 2.821232 0.701251
v -0.797503 2.558263 0.701251
v -0.797503 3.084202 0.701251
v -0.534534 2.821232 0.701251
v -0.885159 2.821232 0.701251
v 0.166718 1.769355 0.350626
v -0.359221 1.769355 0.350626
v -0.096252 1.769355 0.613595
v -0.096252 1.769355 0.262969
v -0.534534 1.769355 0.350626
v -1.060472 1.769355 0.350626
v -0.797503 1.769355 0.613595
v -0.797503 1.769355 0.262969
v -0.534534 1.769355 -0.350626
v -1.060472 1.769355 -0.350626
v -0.797503 1.769355 -0.087656
v -0.797503 1.769355 -0.438282
v -1.060472 3.171858 0.350626
v -0.534534 3.171858 0.350626
v -0.797503 3.171858 0.613595
v -0.797503 3.171858 0.262969
v -0.359221 3.171858 0.350626
v 0.166718 3.171858 0.350626
v -0.096252 3.171858 0.613595
v -0.096252 3.171858 0.262969
v -0.359221 3.171858 -0.350626
v 0.166718 3.171858 -0.350626
v -0.096252 3.171858 -0.087656
v -0.096252 3.171858 -0.438282
v -1.148129 2.908889 0.701251
v -1.148129 3.171858 -0.438282
v -1.148129 2.032324 -0.701251
v -1.148129 1.769355 0.438282
v -0.008595 3.171858 -0.701251
v 0.254374 2.032324 -0.701251
v -0.885159 1.769355 -0.701251
v 0.254374 3.171858 0.438282
v 0.254374 2.032324 0.701251
v 0.254374 1.769355 -0.438282
v -0.885159 3.171858 0.701251
v -0.008595 1.769355 0.701251
v -1.148129 2.032324 0.701251
v -1.148129 3.171858 0.438282
v -1.148129 2.908889 -0.701251
v -1.148129 1.769355 -0.438282
v -0.885159 3.171858 -0.701251
v 0.254374 2.908889 -0.701251
v -0.008595 1.769355 -0.701251
v 0.254374 3.171858 -0.438282
v 0.254374 2.908889 0.701251
v 0.254374 1.769355 0.438282
v -0.008595 3.171858 0.701251
v -0.885159 1.769355 0.701251
v -1.148129 2.032324 0.000000
v -1.148129 2.908889 0.000000
v -1.148129 2.470607 0.438282
v -1.148129 2.470607 -0.262969
v -0.446877 2.032324 -0.701251
v -0.446877 2.908889 -0.701251
v -0.885159 2.470607 -0.701251
v -0.183908 2.470607 -0.701251
v 0.254374 2.032324 0.000000
v 0.254374 2.908889 0.000000
v 0.254374 2.470607 -0.438282
v 0.254374 2.470607 0.262969
v -0.446877 2.032324 0.701251
v -0.446877 2.908889 0.701251
v -0.008595 2.470607 0.701251
v -0.709847 2.470607 0.701251
v -0.008595 1.769355 0.000000
v -0.885159 1.769355 0.000000
v -0.446877 1.769355 0.438282
v -0.446877 1.769355 -0.262969
v -0.885159 3.171858 0.000000
v -0.008595 3.171858 0.000000
v -0.446877 3.171858 0.438282
v -0.446877 3.171858 -0.262969
v -1.148129 2.733576 0.701251
v -1.148129 3.171858 -0.262969
v -1.148129 2.207637 -0.701251
v -1.148129 1.769355 0.262969
v -0.183908 3.171858 -0.701251
v 0.254374 2.207637 -0.701251
v -0.709847 1.769355 -0.701251
v 0.254374 3.171858 0.262969
v 0.254374 2.207637 0.701251
v 0.254374 1.769355 -0.262969
v -0.709847 3.171858 0.701251
v -0.183908 1.769355 0.701251
v -1.148129 2.207637 0.701251
v -1.148129 3.171858 0.262969
v -1.148129 2.733576 -0.701251
v -1.148129 1.769355 -0.262969
v -0.709847 3.171858 -0.701251
v 0.254374 2.733576 -0.701251
v -0.183908 1.769355 -0.701251
v 0.254374 3.171858 -0.262969
v 0.254374 2.733576 0.701251
v 0.254374 1.769355 0.262969
v -0.183908 3.171858 0.701251
v -0.709847 1.769355 0.701251
v -1.148129 2.207637 0.000000
v -1.148129 2.733576 0.000000
v -1.148129 2.470607 0.262969
v -1.148129 2.470607 -0.438282
v -0.446877 2.207637 -0.701251
v -0.446877 2.733576 -0.701251
v -0.709847 2.470607 -0.701251
v -0.008595 2.470607 -0.701251
v 0.254374 2.207637 0.000000
v 0.254374 2.733576 0.000000
v 0.254374 2.470607 -0.262969
v 0.254374 2.470607 0.438282
v -0.446877 2.207637 0.701251
v -0.446877 2.733576 0.701251
v -0.183908 2.470607 0.701251
v -0.885159 2.470607 0.701251
v -0.183908 1.769355 0.000000
v -0.709847 1.769355 0.000000
v -0.446877 1.769355 0.262969
v -0.446877 1.769355 -0.438282
v -0.709847 3.171858 0.000000
v -0.183908 3.171858 0.000000
v -0.446877 3.171858 0.262969
v -0.446877 3.171858 -0.438282
v -1.148129 2.032324 -0.350626
v -1.148129 2.207637 -0.350626
v -1.148129 2.119981 -0.262969
v -1.148129 2.119981 -0.613595
v -0.096252 2.032324 -0.701251
v -0.096252 2.207637 -0.701251
v -0.183908 2.119981 -0.701251
v 0.166718 2.119981 -0.701251
v 0.254374 2.032324 0.350626
v 0.254374 2.207637 0.350626
v 0.254374 2.119981 0.262969
v 0.254374 2.119981 0.613595
v -0.797503 2.032324 0.701251
v -0.797503 2.207637 0.701251
v -0.709847 2.119981 0.701251
v -1.060472 2.119981 0.701251
v -0.008595 1.769355 -0.350626
v -0.183908 1.769355 -0.350626
v -0.096252 1.769355 -0.262969
v -0.096252 1.769355 -0.613595
v -0.885159 3.171858 -0.350626
v -0.709847 3.171858 -0.350626
v -0.797503 3.171858 -0.262969
v -0.797503 3.171858 -0.613595
v -1.148129 2.032324 0.350626
v -1.148129 2.207637 0.350626
v -1.148129 2.119981 0.438282
v -1.148129 2.119981 0.087656
v -1.148129 2.733576 0.350626
v -1.148129 2.908889 0.350626
v -1.148129 2.821232 0.438282
v -1.148129 2.821232 0.087656
v -1.148129 2.733576 -0.350626
v -1.148129 2.908889 -0.350626
v -1.148129 2.821232 -0.262969
v -1.148129 2.821232 -0.613595
v -0.797503 2.032324 -0.701251
v -0.797503 2.207637 -0.701251
v -0.885159 2.119981 -0.701251
v -0.534534 2.119981 -0.701251
v -0.797503 2.733576 -0.701251
v -0.797503 2.908889 -0.701251
v -0.885159 2.821232 -0.701251
v -0.534534 2.821232 -0.701251
v -0.096252 2.733576 -0.701251
v -0.096252 2.908889 -0.701251
v -0.183908 2.821232 -0.701251
v 0.166718 2.821232 -0.701251
v 0.254374 2.032324 -0.350626
v 0.254374 2.207637 -0.350626
v 0.254374 2.119981 -0.438282
v 0.254374 2.119981 -0.087656
v 0.254374 2.733576 -0.350626
v 0.254374 2.908889 -0.350626
v 0.254374 2.821232 -0.438282
v 0.254374 2.821232 -0.087656
v 0.254374 2.733576 0.350626
v 0.254374 2.908889 0.350626
v 0.254374 2.821232 0.262969
v 0.254374 2.821232 0.613595
v -0.096252 2.032324 0.701251
v -0.096252 2.207637 0.701251
v -0.008595 2.119981 0.701251
v -0.359221 2.119981 0.701251
v -0.096252 2.733576 0.701251
v -0.096252 2.908889 0.701251
v -0.008595 2.821232 0.701251
v -0.359221 2.821232 0.701251
v -0.797503 2.733576 0.701251
v -0.797503 2.908889 0.701251
v -0.709847 2.821232 0.701251
v -1.060472 2.821232 0.701251
v -0.008595 1.769355 0.350626
v -0.183908 1.769355 0.350626
v -0.096252 1.769355 0.438282
v -0.096252 1.769355 0.087656
v -0.709847 1.769355 0.350626
v -0.885159 1.769355 0.350626
v -0.797503 1.769355 0.438282
v -0.797503 1.769355 0.087656
v -0.709847 1.769355 -0.350626
v -0.885159 1.769355 -0.350626
v -0.797503 1.769355 -0.262969
v -0.797503 1.769355 -0.613595
v -0.885159 3.171858 0.350626
v -0.709847 3.171858 0.350626
v -0.797503 3.171858 0.438282
v -0.797503 3.171858 0.087656
v -0.183908 3.171858 0.350626
v -0.008595 3.171858 0.350626
v -0.096252 3.171858 0.438282
v -0.096252 3.171858 0.087656
v -0.183908 3.171858 -0.350626
v -0.008595 3.171858 -0.350626
v -0.096252 3.171858 -0.262969
v -0.096252 3.171858 -0.613595
v -1.148129 1.857012 -0.525939
v -1.148129 2.032324 -0.525939
v -1.148129 1.944668 -0.438282
v -1.148129 1.944668 -0.613595
v 0.079061 1.857012 -0.701251
v 0.079061 2.032324 -0.701251
v -0.008595 1.944668 -0.701251
v 0.166718 1.944668 -0.701251
v 0.254374 1.857012 0.525939
v 0.254374 2.032324 0.525939
v 0.254374 1.944668 0.438282
v 0.254374 1.944668 0.613595
v -0.972816 1.857012 0.701251
v -0.972816 2.032324 0.701251
v -0.885159 1.944668 0.701251
v -1.060472 1.944668 0.701251
v 0.166718 1.769355 -0.525939
v -0.008595 1.769355 -0.525939
v 0.079061 1.769355 -0.438282
v 0.079061 1.769355 -0.613595
v -1.060472 3.171858 -0.525939
v -0.885159 3.171858 -0.525939
v -0.972816 3.171858 -0.438282
v -0.972816 3.171858 -0.613595
v -1.148129 1.857012 0.175313
v -1.148129 2.032324 0.175313
v -1.148129 1.944668 0.262969
v -1.148129 1.944668 0.087656
v -1.148129 2.558263 0.175313
v -1.148129 2.733576 0.175313
v -1.148129 2.645919 0.262969
v -1.148129 2.645919 0.087656
v -1.148129 2.558263 -0.525939
v -1.148129 2.733576 -0.525939
v -1.148129 2.645919 -0.438282
v -1.148129 2.645919 -0.613595
v -0.622190 1.857012 -0.701251
v -0.622190 2.032324 -0.701251
v -0.709847 1.944668 -0.701251
v -0.534534 1.944668 -0.701251
v -0.622190 2.558263 -0.701251
v -0.622190 2.733576 -0.701251
v -0.709847 2.645919 -0.701251
v -0.534534 2.645919 -0.701251
v 0.079061 2.558263 -0.701251
v 0.079061 2.733576 -0.701251
v -0.008595 2.645919 -0.701251
v 0.166718 2.645919 -0.701251
v 0.254374 1.857012 -0.175313
v 0.254374 2.032324 -0.175313
v 0.254374 1.944668 -0.262969
v 0.254374 1.944668 -0.087656
v 0.254374 2.558263 -0.175313
v 0.254374 2.733576 -0.175313
v 0.254374 2.645919 -0.262969
v 0.254374 2.645919 -0.087656
v 0.254374 2.558263 0.525939
v 0.254374 2.733576 0.525939
v 0.254374 2.645919 0.438282
v 0.254374 2.645919 0.613595
v -0.271564 1.857012 0.701251
v -0.271564 2.032324 0.701251
v -0.183908 1.944668 0.701251
v -0.359221 1.944668 0.701251
v -0.271564 2.558263 0.701251
v -0.271564 2.733576 0.701251
v -0.183908 2.645919 0.701251
v -0.359221 2.645919 0.701251
v -0.972816 2.558263 0.701251
v -0.972816 2.733576 0.701251
v -0.885159 2.645919 0.701251
v -1.060472 2.645919 0.701251
v 0.166718 1.769355 0.175313
v -0.008595 1.769355 0.175313
v 0.079061 1.769355 0.262969
v 0.079061 1.769355 0.087656
v -0.534534 1.769355 0.175313
v -0.709847 1.769355 0.175313
v -0.622190 1.769355 0.262969
v -0.622190 1.769355 0.087656
v -0.534534 1.769355 -0.525939
v -0.709847 1.769355 -0.525939
v -0.622190 1.769355 -0.438282
v -0.622190 1.769355 -0.613595
v -1.060472 3.171858 0.175313
v -0.885159 3.171858 0.175313
v -0.972816 3.171858 0.262969
v -0.972816 3.171858 0.087656
v -0.359221 3.171858 0.175313
v -0.183908 3.171858 0.175313
v -0.271564 3.171858 0.262969
v -0.271564 3.171858 0.087656
v -0.359221 3.171858 -0.525939
v -0.183908 3.171858 -0.525939
v -0.271564 3.171858 -0.438282
v -0.271564 3.171858 -0.613595
v -1.148129 1.857012 -0.175313
v -1.148129 2.032324 -0.175313
v -1.148129 1.944668 -0.087656
v -1.148129 1.944668 -0.262969
v -1.148129 2.207637 -0.175313
v -1.148129 2.382950 -0.175313
v -1.148129 2.295294 -0.087656
v -1.148129 2.295294 -0.262969
v -1.148129 2.207637 -0.525939
v -1.148129 2.382950 -0.525939
v -1.148129 2.295294 -0.438282
v -1.148129 2.295294 -0.613595
v -0.271564 1.857012 -0.701251
v -0.271564 2.032324 -0.701251
v -0.359221 1.944668 -0.701251
v -0.183908 1.944668 -0.701251
v -0.271564 2.207637 -0.701251
v -0.271564 2.382950 -0.701251
v -0.359221 2.295294 -0.701251
v -0.183908 2.295294 -0.701251
v 0.079061 2.207637 -0.701251
v 0.079061 2.382950 -0.701251
v -0.008595 2.295294 -0.701251
v 0.166718 2.295294 -0.701251
v 0.254374 1.857012 0.175313
v 0.254374 2.032324 0.175313
v 0.254374 1.944668 0.087656
v 0.254374 1.944668 0.262969
v 0.254374 2.207637 0.175313
v 0.254374 2.382950 0.175313
v 0.254374 2.295294 0.087656
v 0.254374 2.295294 0.262969
v 0.254374 2.207637 0.525939
v 0.254374 2.382950 0.525939
v 0.254374 2.295294 0.438282
v 0.254374 2.295294 0.613595
v -0.622190 1.857012 0.701251
v -0.622190 2.032324 0.701251
v -0.534534 1.944668 0.701251
v -0.709847 1.944668 0.701251
v -0.622190 2.207637 0.701251
v -0.622190 2.382950 0.701251
v -0.534534 2.295294 0.701251
v -0.709847 2.295294 0.701251
v -0.972816 2.207637 0.701251
v -0.972816 2.382950 0.701251
v -0.885159 2.295294 0.701251
v -1.060472 2.295294 0.701251
v 0.166718 1.769355 -0.175313
v -0.008595 1.769355 -0.175313
v 0.079061 1.769355 -0.087656
v 0.079061 1.769355 -0.262969
v -0.183908 1.769355 -0.175313
v -0.359221 1.769355 -0.175313
v -0.271564 1.769355 -0.087656
v -0.271564 1.769355 -0.262969
v -0.183908 1.769355 -0.525939
v -0.359221 1.769355 -0.525939
v -0.271564 1.769355 -0.438282
v -0.271564 1.769355 -0.613595
v -1.060472 3.171858 -0.175313
v -0.885159 3.171858 -0.175313
v -0.972816 3.171858 -0.087656
v -0.972816 3.171858 -0.262969
v -0.709847 3.171858 -0.175313
v -0.534534 3.171858 -0.175313
v -0.622190 3.171858 -0.087656
v -0.622190 3.171858 -0.262969
v -0.709847 3.171858 -0.525939
v -0.534534 3.171858 -0.525939
v -0.622190 3.171858 -0.438282
v -0.622190 3.171858 -0.613595
v -1.148129 1.857012 0.525939
v -1.148129 2.032324 0.525939
v -1.148129 1.944668 0.613595
v -1.148129 1.944668 0.438282
v -1.148129 2.207637 0.525939
v -1.148129 2.382950 0.525939
v -1.148129 2.295294 0.613595
v -1.148129 2.295294 0.438282
v -1.148129 2.207637 0.175313
v -1.148129 2.382950 0.175313
v -1.148129 2.295294 0.262969
v -1.148129 2.295294 0.087656
v -1.148129 2.558263 0.525939
v -1.148129 2.733576 0.525939
v -1.148129 2.645919 0.613595
v -1.148129 2.645919 0.438282
v -1.148129 2.908889 0.525939
v -1.148129 3.084202 0.525939
v -1.148129 2.996545 0.613595
v -1.148129 2.996545 0.438282
v -1.148129 2.908889 0.175313
v -1.148129 3.084202 0.175313
v -1.148129 2.996545 0.262969
v -1.148129 2.996545 0.087656
v -1.148129 2.558263 -0.175313
v -1.148129 2.733576 -0.175313
v -1.148129 2.645919 -0.087656
v -1.148129 2.645919 -0.262969
v -1.148129 2.908889 -0.175313
v -1.148129 3.084202 -0.175313
v -1.148129 2.996545 -0.087656
v -1.148129 2.996545 -0.262969
v -1.148129 2.908889 -0.525939
v -1.148129 3.084202 -0.525939
v -1.148129 2.996545 -0.438282
v -1.148129 2.996545 -0.613595
v -0.972816 1.857012 -0.701251
v -0.972816 2.032324 -0.701251
v -1.060472 1.944668 -0.701251
v -0.885159 1.944668 -0.701251
v -0.972816 2.207637 -0.701251
v -0.972816 2.382950 -0.701251
v -1.060472 2.295294 -0.701251
v -0.885159 2.295294 -0.701251
v -0.622190 2.207637 -0.701251
v -0.622190 2.382950 -0.701251
v -0.709847 2.295294 -0.701251
v -0.534534 2.295294 -0.701251
v -0.972816 2.558263 -0.701251
v -0.972816 2.733576 -0.701251
v -1.060472 2.645919 -0.701251
v -0.885159 2.645919 -0.701251
v -0.972816 2.908889 -0.701251
v -0.972816 3.084202 -0.701251
v -1.060472 2.996545 -0.701251
v -0.885159 2.996545 -0.701251
v -0.622190 2.908889 -0.701251
v -0.622190 3.084202 -0.701251
v -0.709847 2.996545 -0.701251
v -0.534534 2.996545 -0.701251
v -0.271564 2.558263 -0.701251
v -0.271564 2.733576 -0.701251
v -0.359221 2.645919 -0.701251
v -0.183908 2.645919 -0.701251
v -0.271564 2.908889 -0.701251
v -0.271564 3.084202 -0.701251
v -0.359221 2.996545 -0.701251
v -0.183908 2.996545 -0.701251
v 0.079061 2.908889 -0.701251
v 0.079061 3.084202 -0.701251
v -0.008595 2.996545 -0.701251
v 0.166718 2.996545 -0.701251
v 0.254374 1.857012 -0.525939
v 0.254374 2.032324 -0.525939
v 0.254374 1.944668 -0.613595
v 0.254374 1.944668 -0.438282
v 0.254374 2.207637 -0.525939
v 0.254374 2.382950 -0.525939
v 0.254374 2.295294 -0.613595
v 0.254374 2.295294 -0.438282
v 0.254374 2.207637 -0.175313
v 0.254374 2.382950 -0.175313
v 0.254374 2.295294 -0.262969
v 0.254374 2.295294 -0.087656
v 0.254374 2.558263 -0.525939
v 0.254374 2.733576 -0.525939
v 0.254374 2.645919 -0.613595
v 0.254374 2.645919 -0.438282
v 0.254374 2.908889 -0.525939
v 0.254374 3.084202 -0.525939
v 0.254374 2.996545 -0.613595
v 0.254374 2.996545 -0.438282
v 0.254374 2.908889 -0.175313
v 0.254374 3.084202 -0.175313
v 0.254374 2.996545 -0.262969
v 0.254374 2.996545 -0.087656
v 0.254374 2.558263 0.175313
v 0.254374 2.733576 0.175313
v 0.254374 2.645919 0.087656
v 0.254374 2.645919 0.262969
v 0.254374 2.908889 0.175313
v 0.254374 3.084202 0.175313
v 0.254374 2.996545 0.087656
v 0.254374 2.996545 0.262969
v 0.254374 2.908889 0.525939
v 0.254374 3.084202 0.525939
v 0.254374 2.996545 0.438282
v 0.254374 2.996545 0.613595
v 0.079061 1.857012 0.701251
v 0.079061 2.032324 0.701251
v 0.166718 1.944668 0.701251
v -0.008595 1.944668 0.701251
v 0.079061 2.207637 0.701251
v 0.079061 2.382950 0.701251
v 0.166718 2.295294 0.701251
v -0.008595 2.295294 0.701251
v -0.271564 2.207637 0.701251
v -0.271564 2.382950 0.701251
v -0.183908 2.295294 0.701251
v -0.359221 2.295294 0.701251
v 0.079061 2.558263 0.701251
v 0.079061 2.733576 0.701251
v 0.166718 2.645919 0.701251
v -0.008595 2.645919 0.701251
v 0.079061 2.908889 0.701251
v 0.079061 3.084202 0.701251
v 0.166718 2.996545 0.701251
v -0.008595 2.996545 0.701251
v -0.271564 2.908889 0.701251
v -0.271564 3.084202 0.701251
v -0.183908 2.996545 0.701251
v -0.359221 2.996545 0.701251
v -0.622190 2.558263 0.701251
v -0.622190 2.733576 0.701251
v -0.534534 2.645919 0.701251
v -0.709847 2.645919 0.701251
v -0.622190 2.908889 0.701251
v -0.622190 3.084202 0.701251
v -0.534534 2.996545 0.701251
v -0.709847 2.996545 0.701251
v -0.972816 2.908889 0.701251
v -0.972816 3.084202 0.701251
v -0.885159 2.996545 0.701251
v -1.060472 2.996545 0.701251
v 0.166718 1.769355 0.525939
v -0.008595 1.769355 0.525939
v 0.079061 1.769355 0.613595
v 0.079061 1.769355 0.438282
v -0.183908 1.769355 0.525939
v -0.359221 1.769355 0.525939
v -0.271564 1.769355 0.613595
v -0.271564 1.769355 0.438282
v -0.183908 1.769355 0.175313
v -0.359221 1.769355 0.175313
v -0.271564 1.769355 0.262969
v -0.271564 1.769355 0.087656
v -0.534534 1.769355 0.525939
v -0.709847 1.769355 0.525939
v -0.622190 1.769355 0.613595
v -0.622190 1.769355 0.438282
v -0.885159 1.769355 0.525939
v -1.060472 1.769355 0.525939
v -0.972816 1.769355 0.613595
v -0.972816 1.769355 0.438282
v -0.885159 1.769355 0.175313
v -1.060472 1.769355 0.175313
v -0.972816 1.769355 0.262969
v -0.972816 1.769355 0.087656
v -0.534534 1.769355 -0.175313
v -0.709847 1.769355 -0.175313
v -0.622190 1.769355 -0.087656
v -0.622190 1.769355 -0.262969
v -0.885159 1.769355 -0.175313
v -1.060472 1.769355 -0.175313
v -0.972816 1.769355 -0.087656
v -0.972816 1.769355 -0.262969
v -0.885159 1.769355 -0.525939
v -1.060472 1.769355 -0.525939
v -0.972816 1.769355 -0.438282
v -0.972816 1.769355 -0.613595
v -1.060472 3.171858 0.525939
v -0.885159 3.171858 0.525939
v -0.972816 3.171858 0.613595
v -0.972816 3.171858 0.438282
v -0.709847 3.171858 0.525939
v -0.534534 3.171858 0.525939
v -0.622190 3.171858 0.613595
v -0.622190 3.171858 0.438282
v -0.709847 3.171858 0.175313
v -0.534534 3.171858 0.175313
v -0.622190 3.171858 0.262969
v -0.622190 3.171858 0.087656
v -0.359221 3.171858 0.525939
v -0.183908 3.171858 0.525939
v -0.271564 3.171858 0.613595
v -0.271564 3.171858 0.438282
v -0.008595 3.171858 0.525939
v 0.166718 3.171858 0.525939
v 0.079061 3.171858 0.613595
v 0.079061 3.171858 0.438282
v -0.008595 3.171858 0.175313
v 0.166718 3.171858 0.175313
v 0.079061 3.171858 0.262969
v 0.079061 3.171858 0.087656
v -0.359221 3.171858 -0.175313
v -0.183908 3.171858 -0.175313
v -0.271564 3.171858 -0.087656
v -0.271564 3.171858 -0.262969
v -0.008595 3.171858 -0.175313
v 0.166718 3.171858 -0.175313
v 0.079061 3.171858 -0.087656
v 0.079061 3.171858 -0.262969
v -0.008595 3.171858 -0.525939
v 0.166718 3.171858 -0.525939
v 0.079061 3.171858 -0.438282
v 0.079061 3.171858 -0.613595
v -1.148129 1.857012 -0.613595
v 0.166718 1.857012 -0.701251
v 0.254374 1.857012 0.613595
v -1.060472 1.857012 0.701251
v 0.166718 1.769355 -0.613595
v -1.060472 3.171858 -0.613595
v -1.148129 1.857012 0.087656
v -1.148129 2.558263 0.087656
v -1.148129 2.558263 -0.613595
v -0.534534 1.857012 -0.701251
v -0.534534 2.558263 -0.701251
v 0.166718 2.558263 -0.701251
v 0.254374 1.857012 -0.087656
v 0.254374 2.558263 -0.087656
v 0.254374 2.558263 0.613595
v -0.359221 1.857012 0.701251
v -0.359221 2.558263 0.701251
v -1.060472 2.558263 0.701251
v 0.166718 1.769355 0.087656
v -0.534534 1.769355 0.087656
v -0.534534 1.769355 -0.613595
v -1.060472 3.171858 0.087656
v -0.359221 3.171858 0.087656
v -0.359221 3.171858 -0.613595
v -1.148129 1.857012 -0.262969
v -1.148129 2.207637 -0.262969
v -1.148129 2.207637 -0.613595
v -0.183908 1.857012 -0.701251
v -0.183908 2.207637 -0.701251
v 0.166718 2.207637 -0.701251
v 0.254374 1.857012 0.262969
v 0.254374 2.207637 0.262969
v 0.254374 2.207637 0.613595
v -0.709847 1.857012 0.701251
v -0.709847 2.207637 0.701251
v -1.060472 2.207637 0.701251
v 0.166718 1.769355 -0.262969
v -0.183908 1.769355 -0.262969
v -0.183908 1.769355 -0.613595
v -1.060472 3.171858 -0.262969
v -0.709847 3.171858 -0.262969
v -0.709847 3.171858 -0.613595
v -1.148129 1.857012 0.438282
v -1.148129 2.207637 0.438282
v -1.148129 2.207637 0.087656
v -1.148129 2.558263 0.438282
v -1.148129 2.908889 0.438282
v -1.148129 2.908889 0.087656
v -1.148129 2.558263 -0.262969
v -1.148129 2.908889 -0.262969
v -1.148129 2.908889 -0.613595
v -0.885159 1.857012 -0.701251
v -0.885159 2.207637 -0.701251
v -0.534534 2.207637 -0.701251
v -0.885159 2.558263 -0.701251
v -0.885159 2.908889 -0.701251
v -0.534534 2.908889 -0.701251
v -0.183908 2.558263 -0.701251
v -0.183908 2.908889 -0.701251
v 0.166718 2.908889 -0.701251
v 0.254374 1.857012 -0.438282
v 0.254374 2.207637 -0.438282
v 0.254374 2.207637 -0.087656
v 0.254374 2.558263 -0.438282
v 0.254374 2.908889 -0.438282
v 0.254374 2.908889 -0.087656
v 0.254374 2.558263 0.262969
v 0.254374 2.908889 0.262969
v 0.254374 2.908889 0.613595
v -0.008595 1.857012 0.701251
v -0.008595 2.207637 0.701251
v -0.359221 2.207637 0.701251
v -0.008595 2.558263 0.701251
v -0.008595 2.908889 0.701251
v -0.359221 2.908889 0.701251
v -0.709847 2.558263 0.701251
v -0.709847 2.908889 0.701251
v -1.060472 2.908889 0.701251
v 0.166718 1.769355 0.438282
v -0.183908 1.769355 0.438282
v -0.183908 1.769355 0.087656
v -0.534534 1.769355 0.438282
v -0.885159 1.769355 0.438282
v -0.885159 1.769355 0.087656
v -0.534534 1.769355 -0.262969
v -0.885159 1.769355 -0.262969
v -0.885159 1.769355 -0.613595
v -1.060472 3.171858 0.438282
v -0.709847 3.171858 0.438282
v -0.709847 3.171858 0.087656
v -0.359221 3.171858 0.438282
v -0.008595 3.171858 0.438282
v -0.008595 3.171858 0.087656
v -0.359221 3.171858 -0.262969
v -0.008595 3.171858 -0.262969
v -0.008595 3.171858 -0.613595
v -1.148129 1.857012 -0.438282
v -1.148129 2.032324 -0.438282
v -1.148129 2.032324 -0.613595
v -0.008595 1.857012 -0.701251
v -0.008595 2.032324 -0.701251
v 0.166718 2.032324 -0.701251
v 0.254374 1.857012 0.438282
v 0.254374 2.032324 0.438282
v 0.254374 2.032324 0.613595
v -0.885159 1.857012 0.701251
v -0.885159 2.032324 0.701251
v -1.060472 2.032324 0.701251
v 0.166718 1.769355 -0.438282
v -0.008595 1.769355 -0.438282
v -0.008595 1.769355 -0.613595
v -1.060472 3.171858 -0.438282
v -0.885159 3.171858 -0.438282
v -0.885159 3.171858 -0.613595
v -1.148129 1.857012 0.262969
v -1.148129 2.032324 0.262969
v -1.148129 2.032324 0.087656
v -1.148129 2.558263 0.262969
v -1.148129 2.733576 0.262969
v -1.148129 2.733576 0.087656
v -1.148129 2.558263 -0.438282
v -1.148129 2.733576 -0.438282
v -1.148129 2.733576 -0.613595
v -0.709847 1.857012 -0.701251
v -0.709847 2.032324 -0.701251
v -0.534534 2.032324 -0.701251
v -0.709847 2.558263 -0.701251
v -0.709847 2.733576 -0.701251
v -0.534534 2.733576 -0.701251
v -0.008595 2.558263 -0.701251
v -0.008595 2.733576 -0.701251
v 0.166718 2.733576 -0.701251
v 0.254374 1.857012 -0.262969
v 0.254374 2.032324 -0.262969
v 0.254374 2.032324 -0.087656
v 0.254374 2.558263 -0.262969
v 0.254374 2.733576 -0.262969
v 0.254374 2.733576 -0.087656
v 0.254374 2.558263 0.438282
v 0.254374 2.733576 0.438282
v 0.254374 2.733576 0.613595
v -0.183908 1.857012 0.701251
v -0.183908 2.032324 0.701251
v -0.359221 2.032324 0.701251
v -0.183908 2.558263 0.701251
v -0.183908 2.733576 0.701251
v -0.359221 2.733576 0.701251
v -0.885159 2.558263 0.701251
v -0.885159 2.733576 0.701251
v -1.060472 2.733576 0.701251
v 0.166718 1.769355 0.262969
v -0.008595 1.769355 0.262969
v -0.008595 1.769355 0.087656
v -0.534534 1.769355 0.262969
v -0.709847 1.769355 0.262969
v -0.709847 1.769355 0.087656
v -0.534534 1.769355 -0.438282
v -0.709847 1.769355 -0.438282
v -0.709847 1.769355 -0.613595
v -1.060472 3.171858 0.262969
v -0.885159 3.171858 0.262969
v -0.885159 3.171858 0.087656
v -0.359221 3.171858 0.262969
v -0.183908 3.171858 0.262969
v -0.183908 3.171858 0.087656
v -0.359221 3.171858 -0.438282
v -0.183908 3.171858 -0.438282
v -0.183908 3.171858 -0.613595
v -1.148129 1.857012 -0.087656
v -1.148129 2.032324 -0.087656
v -1.148129 2.032324 -0.262969
v -1.148129 2.207637 -0.087656
v -1.148129 2.382950 -0.087656
v -1.148129 2.382950 -0.262969
v -1.148129 2.207637 -0.438282
v -1.148129 2.382950 -0.438282
v -1.148129 2.382950 -0.613595
v -0.359221 1.857012 -0.701251
v -0.359221 2.032324 -0.701251
v -0.183908 2.032324 -0.701251
v -0.359221 2.207637 -0.701251
v -0.359221 2.382950 -0.701251
v -0.183908 2.382950 -0.701251
v -0.008595 2.207637 -0.701251
v -0.008595 2.382950 -0.701251
v 0.166718 2.382950 -0.701251
v 0.254374 1.857012 0.087656
v 0.254374 2.032324 0.087656
v 0.254374 2.032324 0.262969
v 0.254374 2.207637 0.087656
v 0.254374 2.382950 0.087656
v 0.254374 2.382950 0.262969
v 0.254374 2.207637 0.438282
v 0.254374 2.382950 0.438282
v 0.254374 2.382950 0.613595
v -0.534534 1.857012 0.701251
v -0.534534 2.032324 0.701251
v -0.709847 2.032324 0.701251
v -0.534534 2.207637 0.701251
v -0.534534 2.382950 0.701251
v -0.709847 2.382950 0.701251
v -0.885159 2.207637 0.701251
v -0.885159 2.382950 0.701251
v -1.060472 2.382950 0.701251
v 0.166718 1.769355 -0.087656
v -0.008595 1.769355 -0.087656
v -0.008595 1.769355 -0.262969
v -0.183908 1.769355 -0.087656
v -0.359221 1.769355 -0.087656
v -0.359221 1.769355 -0.262969
v -0.183908 1.769355 -0.438282
v -0.359221 1.769355 -0.438282
v -0.359221 1.769355 -0.613595
v -1.060472 3.171858 -0.087656
v -0.885159 3.171858 -0.087656
v -0.885159 3.171858 -0.262969
v -0.709847 3.171858 -0.087656
v -0.534534 3.171858 -0.087656
v -0.534534 3.171858 -0.262969
v -0.709847 3.171858 -0.438282
v -0.534534 3.171858 -0.438282
v -0.534534 3.171858 -0.613595
v -1.148129 1.857012 0.613595
v -1.148129 2.032324 0.613595
v -1.148129 2.032324 0.438282
v -1.148129 2.207637 0.613595
v -1.148129 2.382950 0.613595
v -1.148129 2.382950 0.438282
v -1.148129 2.207637 0.262969
v -1.148129 2.382950 0.262969
v -1.148129 2.382950 0.087656
v -1.148129 2.558263 0.613595
v -1.148129 2.733576 0.613595
v -1.148129 2.733576 0.438282
v -1.148129 2.908889 0.613595
v -1.148129 3.084202 0.613595
v -1.148129 3.084202 0.438282
v -1.148129 2.908889 0.262969
v -1.148129 3.084202 0.262969
v -1.148129 3.084202 0.087656
v -1.148129 2.558263 -0.087656
v -1.148129 2.733576 -0.087656
v -1.148129 2.733576 -0.262969
v -1.148129 2.908889 -0.087656
v -1.148129 3.084202 -0.087656
v -1.148129 3.084202 -0.262969
v -1.148129 2.908889 -0.438282
v -1.148129 3.084202 -0.438282
v -1.148129 3.084202 -0.613595
v -1.060472 1.857012 -0.701251
v -1.060472 2.032324 -0.701251
v -0.885159 2.032324 -0.701251
v -1.060472 2.207637 -0.701251
v -1.060472 2.382950 -0.701251
v -0.885159 2.382950 -0.701251
v -0.709847 2.207637 -0.701251
v -0.709847 2.382950 -0.701251
v -0.534534 2.382950 -0.701251
v -1.060472 2.558263 -0.701251
v -1.060472 2.733576 -0.701251
v -0.885159 2.733576 -0.701251
v -1.060472 2.908889 -0.701251
v -1.060472 3.084202 -0.701251
v -0.885159 3.084202 -0.701251
v -0.709847 2.908889 -0.701251
v -0.709847 3.084202 -0.701251
v -0.534534 3.084202 -0.701251
v -0.359221 2.558263 -0.701251
v -0.359221 2.733576 -0.701251
v -0.183908 2.733576 -0.701251
v -0.359221 2.908889 -0.701251
v -0.359221 3.084202 -0.701251
v -0.183908 3.084202 -0.701251
v -0.008595 2.908889 -0.701251
v -0.008595 3.084202 -0.701251
v 0.166718 3.084202 -0.701251
v 0.254374 1.857012 -0.613595
v 0.254374 2.032324 -0.613595
v 0.254374 2.032324 -0.438282
v 0.254374 2.207637 -0.613595
v 0.254374 2.382950 -0.613595
v 0.254374 2.382950 -0.438282
v 0.254374 2.207637 -0.262969
v 0.254374 2.382950 -0.262969
v 0.254374 2.382950 -0.087656
v 0.254374 2.558263 -0.613595
v 0.254374 2.733576 -0.613595
v 0.254374 2.733576 -0.438282
v 0.254374 2.908889 -0.613595
v 0.254374 3.084202 -0.613595
v 0.254374 3.084202 -0.438282
v 0.254374 2.908889 -0.262969
v 0.254374 3.084202 -0.262969
v 0.254374 3.084202 -0.087656
v 0.254374 2.558263 0.087656
v 0.254374 2.733576 0.087656
v 0.254374 2.733576 0.262969
v 0.254374 2.908889 0.087656
v 0.254374 3.084202 0.087656
v 0.254374 3.084202 0.262969
v 0.254374 2.908889 0.438282
v 0.254374 3.084202 0.438282
v 0.254374 3.084202 0.613595
v 0.166718 1.857012 0.701251
v 0.166718 2.032324 0.701251
v -0.008595 2.032324 0.701251
v 0.166718 2.207637 0.701251
v 0.166718 2.382950 0.701251
v -0.008595 2.382950 0.701251
v -0.183908 2.207637 0.701251
v -0.183908 2.382950 0.701251
v -0.359221 2.382950 0.701251
v 0.166718 2.558263 0.701251
v 0.166718 2.733576 0.701251
v -0.008595 2.733576 0.701251
v 0.166718 2.908889 0.701251
v 0.166718 3.084202 0.701251
v -0.008595 3.084202 0.701251
v -0.183908 2.908889 0.701251
v -0.183908 3.084202 0.701251
v -0.359221 3.084202 0.701251
v -0.534534 2.558263 0.701251
v -0.534534 2.733576 0.701251
v -0.709847 2.733576 0.701251
v -0.534534 2.908889 0.701251
v -0.534534 3.084202 0.701251
v -0.709847 3.084202 0.701251
v -0.885159 2.908889 0.701251
v -0.885159 3.084202 0.701251
v -1.060472 3.084202 0.701251
v 0.166718 1.769355 0.613595
v -0.008595 1.769355 0.613595
v -0.008595 1.769355 0.438282
v -0.183908 1.769355 0.613595
v -0.359221 1.769355 0.613595
v -0.359221 1.769355 0.438282
v -0.183908 1.769355 0.262969
v -0.359221 1.769355 0.262969
v -0.359221 1.769355 0.087656
v -0.534534 1.769355 0.613595
v -0.709847 1.769355 0.613595
v -0.709847 1.769355 0.438282
v -0.885159 1.769355 0.613595
v -1.060472 1.769355 0.613595
v -1.060472 1.769355 0.438282
v -0.885159 1.769355 0.262969
v -1.060472 1.769355 0.262969
v -1.060472 1.769355 0.087656
v -0.534534 1.769355 -0.087656
v -0.709847 1.769355 -0.087656
v -0.709847 1.769355 -0.262969
v -0.885159 1.769355 -0.087656
v -1.060472 1.769355 -0.087656
v -1.060472 1.769355 -0.262969
v -0.885159 1.769355 -0.438282
v -1.060472 1.769355 -0.438282
v -1.060472 1.769355 -0.613595
v -1.060472 3.171858 0.613595
v -0.885159 3.171858 0.613595
v -0.885159 3.171858 0.438282
v -0.709847 3.171858 0.613595
v -0.534534 3.171858 0.613595
v -0.534534 3.171858 0.438282
v -0.709847 3.171858 0.262969
v -0.534534 3.171858 0.262969
v -0.534534 3.171858 0.087656
v -0.359221 3.171858 0.613595
v -0.183908 3.171858 0.613595
v -0.183908 3.171858 0.438282
v -0.008595 3.171858 0.613595
v 0.166718 3.171858 0.613595
v 0.166718 3.171858 0.438282
v -0.008595 3.171858 0.262969
v 0.166718 3.171858 0.262969
v 0.166718 3.171858 0.087656
v -0.359221 3.171858 -0.087656
v -0.183908 3.171858 -0.087656
v -0.183908 3.171858 -0.262969
v -0.008595 3.171858 -0.087656
v 0.166718 3.171858 -0.087656
v 0.166718 3.171858 -0.262969
v -0.008595 3.171858 -0.438282
v 0.166718 3.171858 -0.438282
v 0.166718 3.171858 -0.613595
usemtl None
s off
f 1155 389 2
f 1156 392 3
f 1157 395 4
f 1158 399 1
f 1159 405 3
f 1160 403 6
f 1161 411 12
f 1162 460 21
f 1163 449 11
f 1164 415 15
f 1165 464 22
f 1166 452 14
f 1167 419 18
f 1168 468 23
f 1169 455 17
f 1170 423 20
f 1171 472 24
f 1172 435 9
f 1173 427 18
f 1174 476 25
f 1175 441 15
f 1176 431 10
f 1177 480 26
f 1178 439 13
f 1179 483 42
f 1180 676 75
f 1181 629 29
f 1182 487 45
f 1183 680 76
f 1184 632 32
f 1185 491 48
f 1186 684 77
f 1187 635 35
f 1188 495 50
f 1189 688 78
f 1190 639 39
f 1191 499 36
f 1192 692 79
f 1193 645 45
f 1194 503 28
f 1195 696 80
f 1196 643 43
f 1197 507 30
f 1198 700 81
f 1199 651 51
f 1200 511 53
f 1201 704 82
f 1202 604 52
f 1203 515 54
f 1204 708 83
f 1205 593 41
f 1206 519 33
f 1207 712 84
f 1208 655 55
f 1209 523 57
f 1210 716 85
f 1211 608 56
f 1212 527 58
f 1213 720 86
f 1214 596 44
f 1215 531 36
f 1216 724 87
f 1217 659 59
f 1218 535 61
f 1219 728 88
f 1220 612 60
f 1221 539 62
f 1222 732 89
f 1223 599 47
f 1224 543 38
f 1225 736 90
f 1226 663 63
f 1227 547 65
f 1228 740 91
f 1229 616 64
f 1230 551 66
f 1231 744 92
f 1232 579 27
f 1233 555 48
f 1234 748 93
f 1235 667 67
f 1236 559 69
f 1237 752 94
f 1238 620 68
f 1239 563 70
f 1240 756 95
f 1241 585 33
f 1242 567 40
f 1243 760 96
f 1244 671 71
f 1245 571 73
f 1246 764 97
f 1247 624 72
f 1248 575 74
f 1249 768 98
f 1250 583 31
f 1251 771 114
f 1252 772 291
f 1253 581 101
f 1254 775 117
f 1255 776 292
f 1256 584 104
f 1257 779 120
f 1258 780 293
f 1259 587 107
f 1260 783 122
f 1261 784 294
f 1262 591 111
f 1263 787 108
f 1264 788 295
f 1265 597 117
f 1266 791 100
f 1267 792 296
f 1268 595 115
f 1269 795 150
f 1270 796 297
f 1271 603 123
f 1272 799 173
f 1273 800 298
f 1274 652 172
f 1275 803 174
f 1276 804 299
f 1277 641 161
f 1278 807 153
f 1279 808 300
f 1280 607 127
f 1281 811 177
f 1282 812 301
f 1283 656 176
f 1284 815 178
f 1285 816 302
f 1286 644 164
f 1287 819 156
f 1288 820 303
f 1289 611 131
f 1290 823 181
f 1291 824 304
f 1292 660 180
f 1293 827 182
f 1294 828 305
f 1295 647 167
f 1296 831 158
f 1297 832 306
f 1298 615 135
f 1299 835 185
f 1300 836 307
f 1301 664 184
f 1302 839 186
f 1303 840 308
f 1304 627 147
f 1305 843 168
f 1306 844 309
f 1307 619 139
f 1308 847 189
f 1309 848 310
f 1310 668 188
f 1311 851 190
f 1312 852 311
f 1313 633 153
f 1314 855 160
f 1315 856 312
f 1316 623 143
f 1317 859 193
f 1318 860 313
f 1319 672 192
f 1320 863 194
f 1321 864 314
f 1322 631 151
f 1323 867 162
f 1324 868 315
f 1325 675 195
f 1326 871 197
f 1327 872 316
f 1328 484 196
f 1329 875 198
f 1330 876 317
f 1331 437 149
f 1332 879 165
f 1333 880 318
f 1334 679 199
f 1335 883 201
f 1336 884 319
f 1337 488 200
f 1338 887 202
f 1339 888 320
f 1340 440 152
f 1341 891 168
f 1342 892 321
f 1343 683 203
f 1344 895 205
f 1345 896 322
f 1346 492 204
f 1347 899 206
f 1348 900 323
f 1349 443 155
f 1350 903 170
f 1351 904 324
f 1352 687 207
f 1353 907 209
f 1354 908 325
f 1355 496 208
f 1356 911 210
f 1357 912 326
f 1358 447 159
f 1359 915 156
f 1360 916 327
f 1361 691 211
f 1362 919 213
f 1363 920 328
f 1364 500 212
f 1365 923 214
f 1366 924 329
f 1367 453 165
f 1368 927 148
f 1369 928 330
f 1370 695 215
f 1371 931 217
f 1372 932 331
f 1373 504 216
f 1374 935 218
f 1375 936 332
f 1376 451 163
f 1377 939 102
f 1378 940 333
f 1379 699 219
f 1380 943 221
f 1381 944 334
f 1382 508 220
f 1383 947 222
f 1384 948 335
f 1385 459 171
f 1386 951 125
f 1387 952 336
f 1388 703 223
f 1389 955 225
f 1390 956 337
f 1391 512 224
f 1392 959 226
f 1393 960 338
f 1394 412 124
f 1395 963 126
f 1396 964 339
f 1397 707 227
f 1398 967 229
f 1399 968 340
f 1400 516 228
f 1401 971 230
f 1402 972 341
f 1403 401 113
f 1404 975 105
f 1405 976 342
f 1406 711 231
f 1407 979 233
f 1408 980 343
f 1409 520 232
f 1410 983 234
f 1411 984 344
f 1412 463 175
f 1413 987 129
f 1414 988 345
f 1415 715 235
f 1416 991 237
f 1417 992 346
f 1418 524 236
f 1419 995 238
f 1420 996 347
f 1421 416 128
f 1422 999 130
f 1423 1000 348
f 1424 719 239
f 1425 1003 241
f 1426 1004 349
f 1427 528 240
f 1428 1007 242
f 1429 1008 350
f 1430 404 116
f 1431 1011 108
f 1432 1012 351
f 1433 723 243
f 1434 1015 245
f 1435 1016 352
f 1436 532 244
f 1437 1019 246
f 1438 1020 353
f 1439 467 179
f 1440 1023 133
f 1441 1024 354
f 1442 727 247
f 1443 1027 249
f 1444 1028 355
f 1445 536 248
f 1446 1031 250
f 1447 1032 356
f 1448 420 132
f 1449 1035 134
f 1450 1036 357
f 1451 731 251
f 1452 1039 253
f 1453 1040 358
f 1454 540 252
f 1455 1043 254
f 1456 1044 359
f 1457 407 119
f 1458 1047 110
f 1459 1048 360
f 1460 735 255
f 1461 1051 257
f 1462 1052 361
f 1463 544 256
f 1464 1055 258
f 1465 1056 362
f 1466 471 183
f 1467 1059 137
f 1468 1060 363
f 1469 739 259
f 1470 1063 261
f 1471 1064 364
f 1472 548 260
f 1473 1067 262
f 1474 1068 365
f 1475 424 136
f 1476 1071 138
f 1477 1072 366
f 1478 743 263
f 1479 1075 265
f 1480 1076 367
f 1481 552 264
f 1482 1079 266
f 1483 1080 368
f 1484 387 99
f 1485 1083 120
f 1486 1084 369
f 1487 747 267
f 1488 1087 269
f 1489 1088 370
f 1490 556 268
f 1491 1091 270
f 1492 1092 371
f 1493 475 187
f 1494 1095 141
f 1495 1096 372
f 1496 751 271
f 1497 1099 273
f 1498 1100 373
f 1499 560 272
f 1500 1103 274
f 1501 1104 374
f 1502 428 140
f 1503 1107 142
f 1504 1108 375
f 1505 755 275
f 1506 1111 277
f 1507 1112 376
f 1508 564 276
f 1509 1115 278
f 1510 1116 377
f 1511 393 105
f 1512 1119 112
f 1513 1120 378
f 1514 759 279
f 1515 1123 281
f 1516 1124 379
f 1517 568 280
f 1518 1127 282
f 1519 1128 380
f 1520 479 191
f 1521 1131 145
f 1522 1132 381
f 1523 763 283
f 1524 1135 285
f 1525 1136 382
f 1526 572 284
f 1527 1139 286
f 1528 1140 383
f 1529 432 144
f 1530 1143 146
f 1531 1144 384
f 1532 767 287
f 1533 1147 289
f 1534 1148 385
f 1535 576 288
f 1536 1151 290
f 1537 1152 386
f 1538 391 103
f 771 1155 402
f 291 774 1155
f 774 101 389
f 775 1156 405
f 292 778 1156
f 778 104 392
f 779 1157 408
f 293 782 1157
f 782 107 395
f 783 1158 410
f 294 786 1158
f 786 111 399
f 787 1159 396
f 295 790 1159
f 790 117 405
f 791 1160 388
f 296 794 1160
f 794 115 403
f 795 1161 438
f 297 798 1161
f 798 123 411
f 799 1162 461
f 298 802 1162
f 802 172 460
f 803 1163 462
f 299 806 1163
f 806 161 449
f 807 1164 441
f 300 810 1164
f 810 127 415
f 811 1165 465
f 301 814 1165
f 814 176 464
f 815 1166 466
f 302 818 1166
f 818 164 452
f 819 1167 444
f 303 822 1167
f 822 131 419
f 823 1168 469
f 304 826 1168
f 826 180 468
f 827 1169 470
f 305 830 1169
f 830 167 455
f 831 1170 446
f 306 834 1170
f 834 135 423
f 835 1171 473
f 307 838 1171
f 838 184 472
f 839 1172 474
f 308 842 1172
f 842 147 435
f 843 1173 456
f 309 846 1173
f 846 139 427
f 847 1174 477
f 310 850 1174
f 850 188 476
f 851 1175 478
f 311 854 1175
f 854 153 441
f 855 1176 448
f 312 858 1176
f 858 143 431
f 859 1177 481
f 313 862 1177
f 862 192 480
f 863 1178 482
f 314 866 1178
f 866 151 439
f 867 1179 642
f 315 870 1179
f 870 195 483
f 871 1180 677
f 316 874 1180
f 874 196 676
f 875 1181 678
f 317 878 1181
f 878 149 629
f 879 1182 645
f 318 882 1182
f 882 199 487
f 883 1183 681
f 319 886 1183
f 886 200 680
f 887 1184 682
f 320 890 1184
f 890 152 632
f 891 1185 648
f 321 894 1185
f 894 203 491
f 895 1186 685
f 322 898 1186
f 898 204 684
f 899 1187 686
f 323 902 1187
f 902 155 635
f 903 1188 650
f 324 906 1188
f 906 207 495
f 907 1189 689
f 325 910 1189
f 910 208 688
f 911 1190 690
f 326 914 1190
f 914 159 639
f 915 1191 636
f 327 918 1191
f 918 211 499
f 919 1192 693
f 328 922 1192
f 922 212 692
f 923 1193 694
f 329 926 1193
f 926 165 645
f 927 1194 628
f 330 930 1194
f 930 215 503
f 931 1195 697
f 331 934 1195
f 934 216 696
f 935 1196 698
f 332 938 1196
f 938 163 643
f 939 1197 582
f 333 942 1197
f 942 219 507
f 943 1198 701
f 334 946 1198
f 946 220 700
f 947 1199 702
f 335 950 1199
f 950 171 651
f 951 1200 605
f 336 954 1200
f 954 223 511
f 955 1201 705
f 337 958 1201
f 958 224 704
f 959 1202 706
f 338 962 1202
f 962 124 604
f 963 1203 606
f 339 966 1203
f 966 227 515
f 967 1204 709
f 340 970 1204
f 970 228 708
f 971 1205 710
f 341 974 1205
f 974 113 593
f 975 1206 585
f 342 978 1206
f 978 231 519
f 979 1207 713
f 343 982 1207
f 982 232 712
f 983 1208 714
f 344 986 1208
f 986 175 655
f 987 1209 609
f 345 990 1209
f 990 235 523
f 991 1210 717
f 346 994 1210
f 994 236 716
f 995 1211 718
f 347 998 1211
f 998 128 608
f 999 1212 610
f 348 1002 1212
f 1002 239 527
f 1003 1213 721
f 349 1006 1213
f 1006 240 720
f 1007 1214 722
f 350 1010 1214
f 1010 116 596
f 1011 1215 588
f 351 1014 1215
f 1014 243 531
f 1015 1216 725
f 352 1018 1216
f 1018 244 724
f 1019 1217 726
f 353 1022 1217
f 1022 179 659
f 1023 1218 613
f 354 1026 1218
f 1026 247 535
f 1027 1219 729
f 355 1030 1219
f 1030 248 728
f 1031 1220 730
f 356 1034 1220
f 1034 132 612
f 1035 1221 614
f 357 1038 1221
f 1038 251 539
f 1039 1222 733
f 358 1042 1222
f 1042 252 732
f 1043 1223 734
f 359 1046 1223
f 1046 119 599
f 1047 1224 590
f 360 1050 1224
f 1050 255 543
f 1051 1225 737
f 361 1054 1225
f 1054 256 736
f 1055 1226 738
f 362 1058 1226
f 1058 183 663
f 1059 1227 617
f 363 1062 1227
f 1062 259 547
f 1063 1228 741
f 364 1066 1228
f 1066 260 740
f 1067 1229 742
f 365 1070 1229
f 1070 136 616
f 1071 1230 618
f 366 1074 1230
f 1074 263 551
f 1075 1231 745
f 367 1078 1231
f 1078 264 744
f 1079 1232 746
f 368 1082 1232
f 1082 99 579
f 1083 1233 600
f 369 1086 1233
f 1086 267 555
f 1087 1234 749
f 370 1090 1234
f 1090 268 748
f 1091 1235 750
f 371 1094 1235
f 1094 187 667
f 1095 1236 621
f 372 1098 1236
f 1098 271 559
f 1099 1237 753
f 373 1102 1237
f 1102 272 752
f 1103 1238 754
f 374 1106 1238
f 1106 140 620
f 1107 1239 622
f 375 1110 1239
f 1110 275 563
f 1111 1240 757
f 376 1114 1240
f 1114 276 756
f 1115 1241 758
f 377 1118 1241
f 1118 105 585
f 1119 1242 592
f 378 1122 1242
f 1122 279 567
f 1123 1243 761
f 379 1126 1243
f 1126 280 760
f 1127 1244 762
f 380 1130 1244
f 1130 191 671
f 1131 1245 625
f 381 1134 1245
f 1134 283 571
f 1135 1246 765
f 382 1138 1246
f 1138 284 764
f 1139 1247 766
f 383 1142 1247
f 1142 144 624
f 1143 1248 626
f 384 1146 1248
f 1146 287 575
f 1147 1249 769
f 385 1150 1249
f 1150 288 768
f 1151 1250 770
f 386 1154 1250
f 1154 103 583
f 483 1251 594
f 195 773 1251
f 773 291 771
f 675 1252 773
f 75 486 1252
f 486 198 772
f 772 1253 774
f 198 678 1253
f 678 29 581
f 487 1254 597
f 199 777 1254
f 777 292 775
f 679 1255 777
f 76 490 1255
f 490 202 776
f 776 1256 778
f 202 682 1256
f 682 32 584
f 491 1257 600
f 203 781 1257
f 781 293 779
f 683 1258 781
f 77 494 1258
f 494 206 780
f 780 1259 782
f 206 686 1259
f 686 35 587
f 495 1260 602
f 207 785 1260
f 785 294 783
f 687 1261 785
f 78 498 1261
f 498 210 784
f 784 1262 786
f 210 690 1262
f 690 39 591
f 499 1263 588
f 211 789 1263
f 789 295 787
f 691 1264 789
f 79 502 1264
f 502 214 788
f 788 1265 790
f 214 694 1265
f 694 45 597
f 503 1266 580
f 215 793 1266
f 793 296 791
f 695 1267 793
f 80 506 1267
f 506 218 792
f 792 1268 794
f 218 698 1268
f 698 43 595
f 507 1269 630
f 219 797 1269
f 797 297 795
f 699 1270 797
f 81 510 1270
f 510 222 796
f 796 1271 798
f 222 702 1271
f 702 51 603
f 511 1272 653
f 223 801 1272
f 801 298 799
f 703 1273 801
f 82 514 1273
f 514 226 800
f 800 1274 802
f 226 706 1274
f 706 52 652
f 515 1275 654
f 227 805 1275
f 805 299 803
f 707 1276 805
f 83 518 1276
f 518 230 804
f 804 1277 806
f 230 710 1277
f 710 41 641
f 519 1278 633
f 231 809 1278
f 809 300 807
f 711 1279 809
f 84 522 1279
f 522 234 808
f 808 1280 810
f 234 714 1280
f 714 55 607
f 523 1281 657
f 235 813 1281
f 813 301 811
f 715 1282 813
f 85 526 1282
f 526 238 812
f 812 1283 814
f 238 718 1283
f 718 56 656
f 527 1284 658
f 239 817 1284
f 817 302 815
f 719 1285 817
f 86 530 1285
f 530 242 816
f 816 1286 818
f 242 722 1286
f 722 44 644
f 531 1287 636
f 243 821 1287
f 821 303 819
f 723 1288 821
f 87 534 1288
f 534 246 820
f 820 1289 822
f 246 726 1289
f 726 59 611
f 535 1290 661
f 247 825 1290
f 825 304 823
f 727 1291 825
f 88 538 1291
f 538 250 824
f 824 1292 826
f 250 730 1292
f 730 60 660
f 539 1293 662
f 251 829 1293
f 829 305 827
f 731 1294 829
f 89 542 1294
f 542 254 828
f 828 1295 830
f 254 734 1295
f 734 47 647
f 543 1296 638
f 255 833 1296
f 833 306 831
f 735 1297 833
f 90 546 1297
f 546 258 832
f 832 1298 834
f 258 738 1298
f 738 63 615
f 547 1299 665
f 259 837 1299
f 837 307 835
f 739 1300 837
f 91 550 1300
f 550 262 836
f 836 1301 838
f 262 742 1301
f 742 64 664
f 551 1302 666
f 263 841 1302
f 841 308 839
f 743 1303 841
f 92 554 1303
f 554 266 840
f 840 1304 842
f 266 746 1304
f 746 27 627
f 555 1305 648
f 267 845 1305
f 845 309 843
f 747 1306 845
f 93 558 1306
f 558 270 844
f 844 1307 846
f 270 750 1307
f 750 67 619
f 559 1308 669
f 271 849 1308
f 849 310 847
f 751 1309 849
f 94 562 1309
f 562 274 848
f 848 1310 850
f 274 754 1310
f 754 68 668
f 563 1311 670
f 275 853 1311
f 853 311 851
f 755 1312 853
f 95 566 1312
f 566 278 852
f 852 1313 854
f 278 758 1313
f 758 33 633
f 567 1314 640
f 279 857 1314
f 857 312 855
f 759 1315 857
f 96 570 1315
f 570 282 856
f 856 1316 858
f 282 762 1316
f 762 71 623
f 571 1317 673
f 283 861 1317
f 861 313 859
f 763 1318 861
f 97 574 1318
f 574 286 860
f 860 1319 862
f 286 766 1319
f 766 72 672
f 575 1320 674
f 287 865 1320
f 865 314 863
f 767 1321 865
f 98 578 1321
f 578 290 864
f 864 1322 866
f 290 770 1322
f 770 31 631
f 411 1323 450
f 123 869 1323
f 869 315 867
f 603 1324 869
f 51 485 1324
f 485 197 868
f 868 1325 870
f 197 677 1325
f 677 75 675
f 651 1326 485
f 171 873 1326
f 873 316 871
f 459 1327 873
f 21 414 1327
f 414 126 872
f 872 1328 874
f 126 606 1328
f 606 54 484
f 676 1329 486
f 196 877 1329
f 877 317 875
f 484 1330 877
f 54 654 1330
f 654 174 876
f 876 1331 878
f 174 462 1331
f 462 11 437
f 415 1332 453
f 127 881 1332
f 881 318 879
f 607 1333 881
f 55 489 1333
f 489 201 880
f 880 1334 882
f 201 681 1334
f 681 76 679
f 655 1335 489
f 175 885 1335
f 885 319 883
f 463 1336 885
f 22 418 1336
f 418 130 884
f 884 1337 886
f 130 610 1337
f 610 58 488
f 680 1338 490
f 200 889 1338
f 889 320 887
f 488 1339 889
f 58 658 1339
f 658 178 888
f 888 1340 890
f 178 466 1340
f 466 14 440
f 419 1341 456
f 131 893 1341
f 893 321 891
f 611 1342 893
f 59 493 1342
f 493 205 892
f 892 1343 894
f 205 685 1343
f 685 77 683
f 659 1344 493
f 179 897 1344
f 897 322 895
f 467 1345 897
f 23 422 1345
f 422 134 896
f 896 1346 898
f 134 614 1346
f 614 62 492
f 684 1347 494
f 204 901 1347
f 901 323 899
f 492 1348 901
f 62 662 1348
f 662 182 900
f 900 1349 902
f 182 470 1349
f 470 17 443
f 423 1350 458
f 135 905 1350
f 905 324 903
f 615 1351 905
f 63 497 1351
f 497 209 904
f 904 1352 906
f 209 689 1352
f 689 78 687
f 663 1353 497
f 183 909 1353
f 909 325 907
f 471 1354 909
f 24 426 1354
f 426 138 908
f 908 1355 910
f 138 618 1355
f 618 66 496
f 688 1356 498
f 208 913 1356
f 913 326 911
f 496 1357 913
f 66 666 1357
f 666 186 912
f 912 1358 914
f 186 474 1358
f 474 9 447
f 427 1359 444
f 139 917 1359
f 917 327 915
f 619 1360 917
f 67 501 1360
f 501 213 916
f 916 1361 918
f 213 693 1361
f 693 79 691
f 667 1362 501
f 187 921 1362
f 921 328 919
f 475 1363 921
f 25 430 1363
f 430 142 920
f 920 1364 922
f 142 622 1364
f 622 70 500
f 692 1365 502
f 212 925 1365
f 925 329 923
f 500 1366 925
f 70 670 1366
f 670 190 924
f 924 1367 926
f 190 478 1367
f 478 15 453
f 431 1368 436
f 143 929 1368
f 929 330 927
f 623 1369 929
f 71 505 1369
f 505 217 928
f 928 1370 930
f 217 697 1370
f 697 80 695
f 671 1371 505
f 191 933 1371
f 933 331 931
f 479 1372 933
f 26 434 1372
f 434 146 932
f 932 1373 934
f 146 626 1373
f 626 74 504
f 696 1374 506
f 216 937 1374
f 937 332 935
f 504 1375 937
f 74 674 1375
f 674 194 936
f 936 1376 938
f 194 482 1376
f 482 13 451
f 399 1377 390
f 111 941 1377
f 941 333 939
f 591 1378 941
f 39 509 1378
f 509 221 940
f 940 1379 942
f 221 701 1379
f 701 81 699
f 639 1380 509
f 159 945 1380
f 945 334 943
f 447 1381 945
f 9 413 1381
f 413 125 944
f 944 1382 946
f 125 605 1382
f 605 53 508
f 700 1383 510
f 220 949 1383
f 949 335 947
f 508 1384 949
f 53 653 1384
f 653 173 948
f 948 1385 950
f 173 461 1385
f 461 21 459
f 435 1386 413
f 147 953 1386
f 953 336 951
f 627 1387 953
f 27 513 1387
f 513 225 952
f 952 1388 954
f 225 705 1388
f 705 82 703
f 579 1389 513
f 99 957 1389
f 957 337 955
f 387 1390 957
f 5 400 1390
f 400 112 956
f 956 1391 958
f 112 592 1391
f 592 40 512
f 704 1392 514
f 224 961 1392
f 961 338 959
f 512 1393 961
f 40 640 1393
f 640 160 960
f 960 1394 962
f 160 448 1394
f 448 10 412
f 460 1395 414
f 172 965 1395
f 965 339 963
f 652 1396 965
f 52 517 1396
f 517 229 964
f 964 1397 966
f 229 709 1397
f 709 83 707
f 604 1398 517
f 124 969 1398
f 969 340 967
f 412 1399 969
f 10 436 1399
f 436 148 968
f 968 1400 970
f 148 628 1400
f 628 28 516
f 708 1401 518
f 228 973 1401
f 973 341 971
f 516 1402 973
f 28 580 1402
f 580 100 972
f 972 1403 974
f 100 388 1403
f 388 6 401
f 389 1404 393
f 101 977 1404
f 977 342 975
f 581 1405 977
f 29 521 1405
f 521 233 976
f 976 1406 978
f 233 713 1406
f 713 84 711
f 629 1407 521
f 149 981 1407
f 981 343 979
f 437 1408 981
f 11 417 1408
f 417 129 980
f 980 1409 982
f 129 609 1409
f 609 57 520
f 712 1410 522
f 232 985 1410
f 985 344 983
f 520 1411 985
f 57 657 1411
f 657 177 984
f 984 1412 986
f 177 465 1412
f 465 22 463
f 449 1413 417
f 161 989 1413
f 989 345 987
f 641 1414 989
f 41 525 1414
f 525 237 988
f 988 1415 990
f 237 717 1415
f 717 85 715
f 593 1416 525
f 113 993 1416
f 993 346 991
f 401 1417 993
f 6 403 1417
f 403 115 992
f 992 1418 994
f 115 595 1418
f 595 43 524
f 716 1419 526
f 236 997 1419
f 997 347 995
f 524 1420 997
f 43 643 1420
f 643 163 996
f 996 1421 998
f 163 451 1421
f 451 13 416
f 464 1422 418
f 176 1001 1422
f 1001 348 999
f 656 1423 1001
f 56 529 1423
f 529 241 1000
f 1000 1424 1002
f 241 721 1424
f 721 86 719
f 608 1425 529
f 128 1005 1425
f 1005 349 1003
f 416 1426 1005
f 13 439 1426
f 439 151 1004
f 1004 1427 1006
f 151 631 1427
f 631 31 528
f 720 1428 530
f 240 1009 1428
f 1009 350 1007
f 528 1429 1009
f 31 583 1429
f 583 103 1008
f 1008 1430 1010
f 103 391 1430
f 391 7 404
f 392 1431 396
f 104 1013 1431
f 1013 351 1011
f 584 1432 1013
f 32 533 1432
f 533 245 1012
f 1012 1433 1014
f 245 725 1433
f 725 87 723
f 632 1434 533
f 152 1017 1434
f 1017 352 1015
f 440 1435 1017
f 14 421 1435
f 421 133 1016
f 1016 1436 1018
f 133 613 1436
f 613 61 532
f 724 1437 534
f 244 1021 1437
f 1021 353 1019
f 532 1438 1021
f 61 661 1438
f 661 181 1020
f 1020 1439 1022
f 181 469 1439
f 469 23 467
f 452 1440 421
f 164 1025 1440
f 1025 354 1023
f 644 1441 1025
f 44 537 1441
f 537 249 1024
f 1024 1442 1026
f 249 729 1442
f 729 88 727
f 596 1443 537
f 116 1029 1443
f 1029 355 1027
f 404 1444 1029
f 7 406 1444
f 406 118 1028
f 1028 1445 1030
f 118 598 1445
f 598 46 536
f 728 1446 538
f 248 1033 1446
f 1033 356 1031
f 536 1447 1033
f 46 646 1447
f 646 166 1032
f 1032 1448 1034
f 166 454 1448
f 454 16 420
f 468 1449 422
f 180 1037 1449
f 1037 357 1035
f 660 1450 1037
f 60 541 1450
f 541 253 1036
f 1036 1451 1038
f 253 733 1451
f 733 89 731
f 612 1452 541
f 132 1041 1452
f 1041 358 1039
f 420 1453 1041
f 16 442 1453
f 442 154 1040
f 1040 1454 1042
f 154 634 1454
f 634 34 540
f 732 1455 542
f 252 1045 1455
f 1045 359 1043
f 540 1456 1045
f 34 586 1456
f 586 106 1044
f 1044 1457 1046
f 106 394 1457
f 394 8 407
f 395 1458 398
f 107 1049 1458
f 1049 360 1047
f 587 1459 1049
f 35 545 1459
f 545 257 1048
f 1048 1460 1050
f 257 737 1460
f 737 90 735
f 635 1461 545
f 155 1053 1461
f 1053 361 1051
f 443 1462 1053
f 17 425 1462
f 425 137 1052
f 1052 1463 1054
f 137 617 1463
f 617 65 544
f 736 1464 546
f 256 1057 1464
f 1057 362 1055
f 544 1465 1057
f 65 665 1465
f 665 185 1056
f 1056 1466 1058
f 185 473 1466
f 473 24 471
f 455 1467 425
f 167 1061 1467
f 1061 363 1059
f 647 1468 1061
f 47 549 1468
f 549 261 1060
f 1060 1469 1062
f 261 741 1469
f 741 91 739
f 599 1470 549
f 119 1065 1470
f 1065 364 1063
f 407 1471 1065
f 8 409 1471
f 409 121 1064
f 1064 1472 1066
f 121 601 1472
f 601 49 548
f 740 1473 550
f 260 1069 1473
f 1069 365 1067
f 548 1474 1069
f 49 649 1474
f 649 169 1068
f 1068 1475 1070
f 169 457 1475
f 457 19 424
f 472 1476 426
f 184 1073 1476
f 1073 366 1071
f 664 1477 1073
f 64 553 1477
f 553 265 1072
f 1072 1478 1074
f 265 745 1478
f 745 92 743
f 616 1479 553
f 136 1077 1479
f 1077 367 1075
f 424 1480 1077
f 19 445 1480
f 445 157 1076
f 1076 1481 1078
f 157 637 1481
f 637 37 552
f 744 1482 554
f 264 1081 1482
f 1081 368 1079
f 552 1483 1081
f 37 589 1483
f 589 109 1080
f 1080 1484 1082
f 109 397 1484
f 397 5 387
f 398 1485 408
f 110 1085 1485
f 1085 369 1083
f 590 1486 1085
f 38 557 1486
f 557 269 1084
f 1084 1487 1086
f 269 749 1487
f 749 93 747
f 638 1488 557
f 158 1089 1488
f 1089 370 1087
f 446 1489 1089
f 20 429 1489
f 429 141 1088
f 1088 1490 1090
f 141 621 1490
f 621 69 556
f 748 1491 558
f 268 1093 1491
f 1093 371 1091
f 556 1492 1093
f 69 669 1492
f 669 189 1092
f 1092 1493 1094
f 189 477 1493
f 477 25 475
f 458 1494 429
f 170 1097 1494
f 1097 372 1095
f 650 1495 1097
f 50 561 1495
f 561 273 1096
f 1096 1496 1098
f 273 753 1496
f 753 94 751
f 602 1497 561
f 122 1101 1497
f 1101 373 1099
f 410 1498 1101
f 1 390 1498
f 390 102 1100
f 1100 1499 1102
f 102 582 1499
f 582 30 560
f 752 1500 562
f 272 1105 1500
f 1105 374 1103
f 560 1501 1105
f 30 630 1501
f 630 150 1104
f 1104 1502 1106
f 150 438 1502
f 438 12 428
f 476 1503 430
f 188 1109 1503
f 1109 375 1107
f 668 1504 1109
f 68 565 1504
f 565 277 1108
f 1108 1505 1110
f 277 757 1505
f 757 95 755
f 620 1506 565
f 140 1113 1506
f 1113 376 1111
f 428 1507 1113
f 12 450 1507
f 450 162 1112
f 1112 1508 1114
f 162 642 1508
f 642 42 564
f 756 1509 566
f 276 1117 1509
f 1117 377 1115
f 564 1510 1117
f 42 594 1510
f 594 114 1116
f 1116 1511 1118
f 114 402 1511
f 402 2 393
f 397 1512 400
f 109 1121 1512
f 1121 378 1119
f 589 1513 1121
f 37 569 1513
f 569 281 1120
f 1120 1514 1122
f 281 761 1514
f 761 96 759
f 637 1515 569
f 157 1125 1515
f 1125 379 1123
f 445 1516 1125
f 19 433 1516
f 433 145 1124
f 1124 1517 1126
f 145 625 1517
f 625 73 568
f 760 1518 570
f 280 1129 1518
f 1129 380 1127
f 568 1519 1129
f 73 673 1519
f 673 193 1128
f 1128 1520 1130
f 193 481 1520
f 481 26 479
f 457 1521 433
f 169 1133 1521
f 1133 381 1131
f 649 1522 1133
f 49 573 1522
f 573 285 1132
f 1132 1523 1134
f 285 765 1523
f 765 97 763
f 601 1524 573
f 121 1137 1524
f 1137 382 1135
f 409 1525 1137
f 8 394 1525
f 394 106 1136
f 1136 1526 1138
f 106 586 1526
f 586 34 572
f 764 1527 574
f 284 1141 1527
f 1141 383 1139
f 572 1528 1141
f 34 634 1528
f 634 154 1140
f 1140 1529 1142
f 154 442 1529
f 442 16 432
f 480 1530 434
f 192 1145 1530
f 1145 384 1143
f 672 1531 1145
f 72 577 1531
f 577 289 1144
f 1144 1532 1146
f 289 769 1532
f 769 98 767
f 624 1533 577
f 144 1149 1533
f 1149 385 1147
f 432 1534 1149
f 16 454 1534
f 454 166 1148
f 1148 1535 1150
f 166 646 1535
f 646 46 576
f 768 1536 578
f 288 1153 1536
f 1153 386 1151
f 576 1537 1153
f 46 598 1537
f 598 118 1152
f 1152 1538 1154
f 118 406 1538
f 406 7 391
f 402 1155 2
f 405 1156 3
f 408 1157 4
f 410 1158 1
f 396 1159 3
f 388 1160 6
f 438 1161 12
f 461 1162 21
f 462 1163 11
f 441 1164 15
f 465 1165 22
f 466 1166 14
f 444 1167 18
f 469 1168 23
f 470 1169 17
f 446 1170 20
f 473 1171 24
f 474 1172 9
f 456 1173 18
f 477 1174 25
f 478 1175 15
f 448 1176 10
f 481 1177 26
f 482 1178 13
f 642 1179 42
f 677 1180 75
f 678 1181 29
f 645 1182 45
f 681 1183 76
f 682 1184 32
f 648 1185 48
f 685 1186 77
f 686 1187 35
f 650 1188 50
f 689 1189 78
f 690 1190 39
f 636 1191 36
f 693 1192 79
f 694 1193 45
f 628 1194 28
f 697 1195 80
f 698 1196 43
f 582 1197 30
f 701 1198 81
f 702 1199 51
f 605 1200 53
f 705 1201 82
f 706 1202 52
f 606 1203 54
f 709 1204 83
f 710 1205 41
f 585 1206 33
f 713 1207 84
f 714 1208 55
f 609 1209 57
f 717 1210 85
f 718 1211 56
f 610 1212 58
f 721 1213 86
f 722 1214 44
f 588 1215 36
f 725 1216 87
f 726 1217 59
f 613 1218 61
f 729 1219 88
f 730 1220 60
f 614 1221 62
f 733 1222 89
f 734 1223 47
f 590 1224 38
f 737 1225 90
f 738 1226 63
f 617 1227 65
f 741 1228 91
f 742 1229 64
f 618 1230 66
f 745 1231 92
f 746 1232 27
f 600 1233 48
f 749 1234 93
f 750 1235 67
f 621 1236 69
f 753 1237 94
f 754 1238 68
f 622 1239 70
f 757 1240 95
f 758 1241 33
f 592 1242 40
f 761 1243 96
f 762 1244 71
f 625 1245 73
f 765 1246 97
f 766 1247 72
f 626 1248 74
f 769 1249 98
f 770 1250 31
f 594 1251 114
f 773 1252 291
f 774 1253 101
f 597 1254 117
f 777 1255 292
f 778 1256 104
f 600 1257 120
f 781 1258 293
f 782 1259 107
f 602 1260 122
f 785 1261 294
f 786 1262 111
f 588 1263 108
f 789 1264 295
f 790 1265 117
f 580 1266 100
f 793 1267 296
f 794 1268 115
f 630 1269 150
f 797 1270 297
f 798 1271 123
f 653 1272 173
f 801 1273 298
f 802 1274 172
f 654 1275 174
f 805 1276 299
f 806 1277 161
f 633 1278 153
f 809 1279 300
f 810 1280 127
f 657 1281 177
f 813 1282 301
f 814 1283 176
f 658 1284 178
f 817 1285 302
f 818 1286 164
f 636 1287 156
f 821 1288 303
f 822 1289 131
f 661 1290 181
f 825 1291 304
f 826 1292 180
f 662 1293 182
f 829 1294 305
f 830 1295 167
f 638 1296 158
f 833 1297 306
f 834 1298 135
f 665 1299 185
f 837 1300 307
f 838 1301 184
f 666 1302 186
f 841 1303 308
f 842 1304 147
f 648 1305 168
f 845 1306 309
f 846 1307 139
f 669 1308 189
f 849 1309 310
f 850 1310 188
f 670 1311 190
f 853 1312 311
f 854 1313 153
f 640 1314 160
f 857 1315 312
f 858 1316 143
f 673 1317 193
f 861 1318 313
f 862 1319 192
f 674 1320 194
f 865 1321 314
f 866 1322 151
f 450 1323 162
f 869 1324 315
f 870 1325 195
f 485 1326 197
f 873 1327 316
f 874 1328 196
f 486 1329 198
f 877 1330 317
f 878 1331 149
f 453 1332 165
f 881 1333 318
f 882 1334 199
f 489 1335 201
f 885 1336 319
f 886 1337 200
f 490 1338 202
f 889 1339 320
f 890 1340 152
f 456 1341 168
f 893 1342 321
f 894 1343 203
f 493 1344 205
f 897 1345 322
f 898 1346 204
f 494 1347 206
f 901 1348 323
f 902 1349 155
f 458 1350 170
f 905 1351 324
f 906 1352 207
f 497 1353 209
f 909 1354 325
f 910 1355 208
f 498 1356 210
f 913 1357 326
f 914 1358 159
f 444 1359 156
f 917 1360 327
f 918 1361 211
f 501 1362 213
f 921 1363 328
f 922 1364 212
f 502 1365 214
f 925 1366 329
f 926 1367 165
f 436 1368 148
f 929 1369 330
f 930 1370 215
f 505 1371 217
f 933 1372 331
f 934 1373 216
f 506 1374 218
f 937 1375 332
f 938 1376 163
f 390 1377 102
f 941 1378 333
f 942 1379 219
f 509 1380 221
f 945 1381 334
f 946 1382 220
f 510 1383 222
f 949 1384 335
f 950 1385 171
f 413 1386 125
f 953 1387 336
f 954 1388 223
f 513 1389 225
f 957 1390 337
f 958 1391 224
f 514 1392 226
f 961 1393 338
f 962 1394 124
f 414 1395 126
f 965 1396 339
f 966 1397 227
f 517 1398 229
f 969 1399 340
f 970 1400 228
f 518 1401 230
f 973 1402 341
f 974 1403 113
f 393 1404 105
f 977 1405 342
f 978 1406 231
f 521 1407 233
f 981 1408 343
f 982 1409 232
f 522 1410 234
f 985 1411 344
f 986 1412 175
f 417 1413 129
f 989 1414 345
f 990 1415 235
f 525 1416 237
f 993 1417 346
f 994 1418 236
f 526 1419 238
f 997 1420 347
f 998 1421 128
f 418 1422 130
f 1001 1423 348
f 1002 1424 239
f 529 1425 241
f 1005 1426 349
f 1006 1427 240
f 530 1428 242
f 1009 1429 350
f 1010 1430 116
f 396 1431 108
f 1013 1432 351
f 1014 1433 243
f 533 1434 245
f 1017 1435 352
f 1018 1436 244
f 534 1437 246
f 1021 1438 353
f 1022 1439 179
f 421 1440 133
f 1025 1441 354
f 1026 1442 247
f 537 1443 249
f 1029 1444 355
f 1030 1445 248
f 538 1446 250
f 1033 1447 356
f 1034 1448 132
f 422 1449 134
f 1037 1450 357
f 1038 1451 251
f 541 1452 253
f 1041 1453 358
f 1042 1454 252
f 542 1455 254
f 1045 1456 359
f 1046 1457 119
f 398 1458 110
f 1049 1459 360
f 1050 1460 255
f 545 1461 257
f 1053 1462 361
f 1054 1463 256
f 546 1464 258
f 1057 1465 362
f 1058 1466 183
f 425 1467 137
f 1061 1468 363
f 1062 1469 259
f 549 1470 261
f 1065 1471 364
f 1066 1472 260
f 550 1473 262
f 1069 1474 365
f 1070 1475 136
f 426 1476 138
f 1073 1477 366
f 1074 1478 263
f 553 1479 265
f 1077 1480 367
f 1078 1481 264
f 554 1482 266
f 1081 1483 368
f 1082 1484 99
f 408 1485 120
f 1085 1486 369
f 1086 1487 267
f 557 1488 269
f 1089 1489 370
f 1090 1490 268
f 558 1491 270
f 1093 1492 371
f 1094 1493 187
f 429 1494 141
f 1097 1495 372
f 1098 1496 271
f 561 1497 273
f 1101 1498 373
f 1102 1499 272
f 562 1500 274
f 1105 1501 374
f 1106 1502 140
f 430 1503 142
f 1109 1504 375
f 1110 1505 275
f 565 1506 277
f 1113 1507 376
f 1114 1508 276
f 566 1509 278
f 1117 1510 377
f 1118 1511 105
f 400 1512 112
f 1121 1513 378
f 1122 1514 279
f 569 1515 281
f 1125 1516 379
f 1126 1517 280
f 570 1518 282
f 1129 1519 380
f 1130 1520 191
f 433 1521 145
f 1133 1522 381
f 1134 1523 283
f 573 1524 285
f 1137 1525 382
f 1138 1526 284
f 574 1527 286
f 1141 1528 383
f 1142 1529 144
f 434 1530 146
f 1145 1531 384
f 1146 1532 287
f 577 1533 289
f 1149 1534 385
f 1150 1535 288
f 578 1536 290
f 1153 1537 386
f 1154 1538 103
f 114 771 402
f 771 291 1155
f 1155 774 389
f 117 775 405
f 775 292 1156
f 1156 778 392
f 120 779 408
f 779 293 1157
f 1157 782 395
f 122 783 410
f 783 294 1158
f 1158 786 399
f 108 787 396
f 787 295 1159
f 1159 790 405
f 100 791 388
f 791 296 1160
f 1160 794 403
f 150 795 438
f 795 297 1161
f 1161 798 411
f 173 799 461
f 799 298 1162
f 1162 802 460
f 174 803 462
f 803 299 1163
f 1163 806 449
f 153 807 441
f 807 300 1164
f 1164 810 415
f 177 811 465
f 811 301 1165
f 1165 814 464
f 178 815 466
f 815 302 1166
f 1166 818 452
f 156 819 444
f 819 303 1167
f 1167 822 419
f 181 823 469
f 823 304 1168
f 1168 826 468
f 182 827 470
f 827 305 1169
f 1169 830 455
f 158 831 446
f 831 306 1170
f 1170 834 423
f 185 835 473
f 835 307 1171
f 1171 838 472
f 186 839 474
f 839 308 1172
f 1172 842 435
f 168 843 456
f 843 309 1173
f 1173 846 427
f 189 847 477
f 847 310 1174
f 1174 850 476
f 190 851 478
f 851 311 1175
f 1175 854 441
f 160 855 448
f 855 312 1176
f 1176 858 431
f 193 859 481
f 859 313 1177
f 1177 862 480
f 194 863 482
f 863 314 1178
f 1178 866 439
f 162 867 642
f 867 315 1179
f 1179 870 483
f 197 871 677
f 871 316 1180
f 1180 874 676
f 198 875 678
f 875 317 1181
f 1181 878 629
f 165 879 645
f 879 318 1182
f 1182 882 487
f 201 883 681
f 883 319 1183
f 1183 886 680
f 202 887 682
f 887 320 1184
f 1184 890 632
f 168 891 648
f 891 321 1185
f 1185 894 491
f 205 895 685
f 895 322 1186
f 1186 898 684
f 206 899 686
f 899 323 1187
f 1187 902 635
f 170 903 650
f 903 324 1188
f 1188 906 495
f 209 907 689
f 907 325 1189
f 1189 910 688
f 210 911 690
f 911 326 1190
f 1190 914 639
f 156 915 636
f 915 327 1191
f 1191 918 499
f 213 919 693
f 919 328 1192
f 1192 922 692
f 214 923 694
f 923 329 1193
f 1193 926 645
f 148 927 628
f 927 330 1194
f 1194 930 503
f 217 931 697
f 931 331 1195
f 1195 934 696
f 218 935 698
f 935 332 1196
f 1196 938 643
f 102 939 582
f 939 333 1197
f 1197 942 507
f 221 943 701
f 943 334 1198
f 1198 946 700
f 222 947 702
f 947 335 1199
f 1199 950 651
f 125 951 605
f 951 336 1200
f 1200 954 511
f 225 955 705
f 955 337 1201
f 1201 958 704
f 226 959 706
f 959 338 1202
f 1202 962 604
f 126 963 606
f 963 339 1203
f 1203 966 515
f 229 967 709
f 967 340 1204
f 1204 970 708
f 230 971 710
f 971 341 1205
f 1205 974 593
f 105 975 585
f 975 342 1206
f 1206 978 519
f 233 979 713
f 979 343 1207
f 1207 982 712
f 234 983 714
f 983 344 1208
f 1208 986 655
f 129 987 609
f 987 345 1209
f 1209 990 523
f 237 991 717
f 991 346 1210
f 1210 994 716
f 238 995 718
f 995 347 1211
f 1211 998 608
f 130 999 610
f 999 348 1212
f 1212 1002 527
f 241 1003 721
f 1003 349 1213
f 1213 1006 720
f 242 1007 722
f 1007 350 1214
f 1214 1010 596
f 108 1011 588
f 1011 351 1215
f 1215 1014 531
f 245 1015 725
f 1015 352 1216
f 1216 1018 724
f 246 1019 726
f 1019 353 1217
f 1217 1022 659
f 133 1023 613
f 1023 354 1218
f 1218 1026 535
f 249 1027 729
f 1027 355 1219
f 1219 1030 728
f 250 1031 730
f 1031 356 1220
f 1220 1034 612
f 134 1035 614
f 1035 357 1221
f 1221 1038 539
f 253 1039 733
f 1039 358 1222
f 1222 1042 732
f 254 1043 734
f 1043 359 1223
f 1223 1046 599
f 110 1047 590
f 1047 360 1224
f 1224 1050 543
f 257 1051 737
f 1051 361 1225
f 1225 1054 736
f 258 1055 738
f 1055 362 1226
f 1226 1058 663
f 137 1059 617
f 1059 363 1227
f 1227 1062 547
f 261 1063 741
f 1063 364 1228
f 1228 1066 740
f 262 1067 742
f 1067 365 1229
f 1229 1070 616
f 138 1071 618
f 1071 366 1230
f 1230 1074 551
f 265 1075 745
f 1075 367 1231
f 1231 1078 744
f 266 1079 746
f 1079 368 1232
f 1232 1082 579
f 120 1083 600
f 1083 369 1233
f 1233 1086 555
f 269 1087 749
f 1087 370 1234
f 1234 1090 748
f 270 1091 750
f 1091 371 1235
f 1235 1094 667
f 141 1095 621
f 1095 372 1236
f 1236 1098 559
f 273 1099 753
f 1099 373 1237
f 1237 1102 752
f 274 1103 754
f 1103 374 1238
f 1238 1106 620
f 142 1107 622
f 1107 375 1239
f 1239 1110 563
f 277 1111 757
f 1111 376 1240
f 1240 1114 756
f 278 1115 758
f 1115 377 1241
f 1241 1118 585
f 112 1119 592
f 1119 378 1242
f 1242 1122 567
f 281 1123 761
f 1123 379 1243
f 1243 1126 760
f 282 1127 762
f 1127 380 1244
f 1244 1130 671
f 145 1131 625
f 1131 381 1245
f 1245 1134 571
f 285 1135 765
f 1135 382 1246
f 1246 1138 764
f 286 1139 766
f 1139 383 1247
f 1247 1142 624
f 146 1143 626
f 1143 384 1248
f 1248 1146 575
f 289 1147 769
f 1147 385 1249
f 1249 1150 768
f 290 1151 770
f 1151 386 1250
f 1250 1154 583
f 42 483 594
f 483 195 1251
f 1251 773 771
f 195 675 773
f 675 75 1252
f 1252 486 772
f 291 772 774
f 772 198 1253
f 1253 678 581
f 45 487 597
f 487 199 1254
f 1254 777 775
f 199 679 777
f 679 76 1255
f 1255 490 776
f 292 776 778
f 776 202 1256
f 1256 682 584
f 48 491 600
f 491 203 1257
f 1257 781 779
f 203 683 781
f 683 77 1258
f 1258 494 780
f 293 780 782
f 780 206 1259
f 1259 686 587
f 50 495 602
f 495 207 1260
f 1260 785 783
f 207 687 785
f 687 78 1261
f 1261 498 784
f 294 784 786
f 784 210 1262
f 1262 690 591
f 36 499 588
f 499 211 1263
f 1263 789 787
f 211 691 789
f 691 79 1264
f 1264 502 788
f 295 788 790
f 788 214 1265
f 1265 694 597
f 28 503 580
f 503 215 1266
f 1266 793 791
f 215 695 793
f 695 80 1267
f 1267 506 792
f 296 792 794
f 792 218 1268
f 1268 698 595
f 30 507 630
f 507 219 1269
f 1269 797 795
f 219 699 797
f 699 81 1270
f 1270 510 796
f 297 796 798
f 796 222 1271
f 1271 702 603
f 53 511 653
f 511 223 1272
f 1272 801 799
f 223 703 801
f 703 82 1273
f 1273 514 800
f 298 800 802
f 800 226 1274
f 1274 706 652
f 54 515 654
f 515 227 1275
f 1275 805 803
f 227 707 805
f 707 83 1276
f 1276 518 804
f 299 804 806
f 804 230 1277
f 1277 710 641
f 33 519 633
f 519 231 1278
f 1278 809 807
f 231 711 809
f 711 84 1279
f 1279 522 808
f 300 808 810
f 808 234 1280
f 1280 714 607
f 57 523 657
f 523 235 1281
f 1281 813 811
f 235 715 813
f 715 85 1282
f 1282 526 812
f 301 812 814
f 812 238 1283
f 1283 718 656
f 58 527 658
f 527 239 1284
f 1284 817 815
f 239 719 817
f 719 86 1285
f 1285 530 816
f 302 816 818
f 816 242 1286
f 1286 722 644
f 36 531 636
f 531 243 1287
f 1287 821 819
f 243 723 821
f 723 87 1288
f 1288 534 820
f 303 820 822
f 820 246 1289
f 1289 726 611
f 61 535 661
f 535 247 1290
f 1290 825 823
f 247 727 825
f 727 88 1291
f 1291 538 824
f 304 824 826
f 824 250 1292
f 1292 730 660
f 62 539 662
f 539 251 1293
f 1293 829 827
f 251 731 829
f 731 89 1294
f 1294 542 828
f 305 828 830
f 828 254 1295
f 1295 734 647
f 38 543 638
f 543 255 1296
f 1296 833 831
f 255 735 833
f 735 90 1297
f 1297 546 832
f 306 832 834
f 832 258 1298
f 1298 738 615
f 65 547 665
f 547 259 1299
f 1299 837 835
f 259 739 837
f 739 91 1300
f 1300 550 836
f 307 836 838
f 836 262 1301
f 1301 742 664
f 66 551 666
f 551 263 1302
f 1302 841 839
f 263 743 841
f 743 92 1303
f 1303 554 840
f 308 840 842
f 840 266 1304
f 1304 746 627
f 48 555 648
f 555 267 1305
f 1305 845 843
f 267 747 845
f 747 93 1306
f 1306 558 844
f 309 844 846
f 844 270 1307
f 1307 750 619
f 69 559 669
f 559 271 1308
f 1308 849 847
f 271 751 849
f 751 94 1309
f 1309 562 848
f 310 848 850
f 848 274 1310
f 1310 754 668
f 70 563 670
f 563 275 1311
f 1311 853 851
f 275 755 853
f 755 95 1312
f 1312 566 852
f 311 852 854
f 852 278 1313
f 1313 758 633
f 40 567 640
f 567 279 1314
f 1314 857 855
f 279 759 857
f 759 96 1315
f 1315 570 856
f 312 856 858
f 856 282 1316
f 1316 762 623
f 73 571 673
f 571 283 1317
f 1317 861 859
f 283 763 861
f 763 97 1318
f 1318 574 860
f 313 860 862
f 860 286 1319
f 1319 766 672
f 74 575 674
f 575 287 1320
f 1320 865 863
f 287 767 865
f 767 98 1321
f 1321 578 864
f 314 864 866
f 864 290 1322
f 1322 770 631
f 12 411 450
f 411 123 1323
f 1323 869 867
f 123 603 869
f 603 51 1324
f 1324 485 868
f 315 868 870
f 868 197 1325
f 1325 677 675
f 51 651 485
f 651 171 1326
f 1326 873 871
f 171 459 873
f 459 21 1327
f 1327 414 872
f 316 872 874
f 872 126 1328
f 1328 606 484
f 75 676 486
f 676 196 1329
f 1329 877 875
f 196 484 877
f 484 54 1330
f 1330 654 876
f 317 876 878
f 876 174 1331
f 1331 462 437
f 15 415 453
f 415 127 1332
f 1332 881 879
f 127 607 881
f 607 55 1333
f 1333 489 880
f 318 880 882
f 880 201 1334
f 1334 681 679
f 55 655 489
f 655 175 1335
f 1335 885 883
f 175 463 885
f 463 22 1336
f 1336 418 884
f 319 884 886
f 884 130 1337
f 1337 610 488
f 76 680 490
f 680 200 1338
f 1338 889 887
f 200 488 889
f 488 58 1339
f 1339 658 888
f 320 888 890
f 888 178 1340
f 1340 466 440
f 18 419 456
f 419 131 1341
f 1341 893 891
f 131 611 893
f 611 59 1342
f 1342 493 892
f 321 892 894
f 892 205 1343
f 1343 685 683
f 59 659 493
f 659 179 1344
f 1344 897 895
f 179 467 897
f 467 23 1345
f 1345 422 896
f 322 896 898
f 896 134 1346
f 1346 614 492
f 77 684 494
f 684 204 1347
f 1347 901 899
f 204 492 901
f 492 62 1348
f 1348 662 900
f 323 900 902
f 900 182 1349
f 1349 470 443
f 20 423 458
f 423 135 1350
f 1350 905 903
f 135 615 905
f 615 63 1351
f 1351 497 904
f 324 904 906
f 904 209 1352
f 1352 689 687
f 63 663 497
f 663 183 1353
f 1353 909 907
f 183 471 909
f 471 24 1354
f 1354 426 908
f 325 908 910
f 908 138 1355
f 1355 618 496
f 78 688 498
f 688 208 1356
f 1356 913 911
f 208 496 913
f 496 66 1357
f 1357 666 912
f 326 912 914
f 912 186 1358
f 1358 474 447
f 18 427 444
f 427 139 1359
f 1359 917 915
f 139 619 917
f 619 67 1360
f 1360 501 916
f 327 916 918
f 916 213 1361
f 1361 693 691
f 67 667 501
f 667 187 1362
f 1362 921 919
f 187 475 921
f 475 25 1363
f 1363 430 920
f 328 920 922
f 920 142 1364
f 1364 622 500
f 79 692 502
f 692 212 1365
f 1365 925 923
f 212 500 925
f 500 70 1366
f 1366 670 924
f 329 924 926
f 924 190 1367
f 1367 478 453
f 10 431 436
f 431 143 1368
f 1368 929 927
f 143 623 929
f 623 71 1369
f 1369 505 928
f 330 928 930
f 928 217 1370
f 1370 697 695
f 71 671 505
f 671 191 1371
f 1371 933 931
f 191 479 933
f 479 26 1372
f 1372 434 932
f 331 932 934
f 932 146 1373
f 1373 626 504
f 80 696 506
f 696 216 1374
f 1374 937 935
f 216 504 937
f 504 74 1375
f 1375 674 936
f 332 936 938
f 936 194 1376
f 1376 482 451
f 1 399 390
f 399 111 1377
f 1377 941 939
f 111 591 941
f 591 39 1378
f 1378 509 940
f 333 940 942
f 940 221 1379
f 1379 701 699
f 39 639 509
f 639 159 1380
f 1380 945 943
f 159 447 945
f 447 9 1381
f 1381 413 944
f 334 944 946
f 944 125 1382
f 1382 605 508
f 81 700 510
f 700 220 1383
f 1383 949 947
f 220 508 949
f 508 53 1384
f 1384 653 948
f 335 948 950
f 948 173 1385
f 1385 461 459
f 9 435 413
f 435 147 1386
f 1386 953 951
f 147 627 953
f 627 27 1387
f 1387 513 952
f 336 952 954
f 952 225 1388
f 1388 705 703
f 27 579 513
f 579 99 1389
f 1389 957 955
f 99 387 957
f 387 5 1390
f 1390 400 956
f 337 956 958
f 956 112 1391
f 1391 592 512
f 82 704 514
f 704 224 1392
f 1392 961 959
f 224 512 961
f 512 40 1393
f 1393 640 960
f 338 960 962
f 960 160 1394
f 1394 448 412
f 21 460 414
f 460 172 1395
f 1395 965 963
f 172 652 965
f 652 52 1396
f 1396 517 964
f 339 964 966
f 964 229 1397
f 1397 709 707
f 52 604 517
f 604 124 1398
f 1398 969 967
f 124 412 969
f 412 10 1399
f 1399 436 968
f 340 968 970
f 968 148 1400
f 1400 628 516
f 83 708 518
f 708 228 1401
f 1401 973 971
f 228 516 973
f 516 28 1402
f 1402 580 972
f 341 972 974
f 972 100 1403
f 1403 388 401
f 2 389 393
f 389 101 1404
f 1404 977 975
f 101 581 977
f 581 29 1405
f 1405 521 976
f 342 976 978
f 976 233 1406
f 1406 713 711
f 29 629 521
f 629 149 1407
f 1407 981 979
f 149 437 981
f 437 11 1408
f 1408 417 980
f 343 980 982
f 980 129 1409
f 1409 609 520
f 84 712 522
f 712 232 1410
f 1410 985 983
f 232 520 985
f 520 57 1411
f 1411 657 984
f 344 984 986
f 984 177 1412
f 1412 465 463
f 11 449 417
f 449 161 1413
f 1413 989 987
f 161 641 989
f 641 41 1414
f 1414 525 988
f 345 988 990
f 988 237 1415
f 1415 717 715
f 41 593 525
f 593 113 1416
f 1416 993 991
f 113 401 993
f 401 6 1417
f 1417 403 992
f 346 992 994
f 992 115 1418
f 1418 595 524
f 85 716 526
f 716 236 1419
f 1419 997 995
f 236 524 997
f 524 43 1420
f 1420 643 996
f 347 996 998
f 996 163 1421
f 1421 451 416
f 22 464 418
f 464 176 1422
f 1422 1001 999
f 176 656 1001
f 656 56 1423
f 1423 529 1000
f 348 1000 1002
f 1000 241 1424
f 1424 721 719
f 56 608 529
f 608 128 1425
f 1425 1005 1003
f 128 416 1005
f 416 13 1426
f 1426 439 1004
f 349 1004 1006
f 1004 151 1427
f 1427 631 528
f 86 720 530
f 720 240 1428
f 1428 1009 1007
f 240 528 1009
f 528 31 1429
f 1429 583 1008
f 350 1008 1010
f 1008 103 1430
f 1430 391 404
f 3 392 396
f 392 104 1431
f 1431 1013 1011
f 104 584 1013
f 584 32 1432
f 1432 533 1012
f 351 1012 1014
f 1012 245 1433
f 1433 725 723
f 32 632 533
f 632 152 1434
f 1434 1017 1015
f 152 440 1017
f 440 14 1435
f 1435 421 1016
f 352 1016 1018
f 1016 133 1436
f 1436 613 532
f 87 724 534
f 724 244 1437
f 1437 1021 1019
f 244 532 1021
f 532 61 1438
f 1438 661 1020
f 353 1020 1022
f 1020 181 1439
f 1439 469 467
f 14 452 421
f 452 164 1440
f 1440 1025 1023
f 164 644 1025
f 644 44 1441
f 1441 537 1024
f 354 1024 1026
f 1024 249 1442
f 1442 729 727
f 44 596 537
f 596 116 1443
f 1443 1029 1027
f 116 404 1029
f 404 7 1444
f 1444 406 1028
f 355 1028 1030
f 1028 118 1445
f 1445 598 536
f 88 728 538
f 728 248 1446
f 1446 1033 1031
f 248 536 1033
f 536 46 1447
f 1447 646 1032
f 356 1032 1034
f 1032 166 1448
f 1448 454 420
f 23 468 422
f 468 180 1449
f 1449 1037 1035
f 180 660 1037
f 660 60 1450
f 1450 541 1036
f 357 1036 1038
f 1036 253 1451
f 1451 733 731
f 60 612 541
f 612 132 1452
f 1452 1041 1039
f 132 420 1041
f 420 16 1453
f 1453 442 1040
f 358 1040 1042
f 1040 154 1454
f 1454 634 540
f 89 732 542
f 732 252 1455
f 1455 1045 1043
f 252 540 1045
f 540 34 1456
f 1456 586 1044
f 359 1044 1046
f 1044 106 1457
f 1457 394 407
f 4 395 398
f 395 107 1458
f 1458 1049 1047
f 107 587 1049
f 587 35 1459
f 1459 545 1048
f 360 1048 1050
f 1048 257 1460
f 1460 737 735
f 35 635 545
f 635 155 1461
f 1461 1053 1051
f 155 443 1053
f 443 17 1462
f 1462 425 1052
f 361 1052 1054
f 1052 137 1463
f 1463 617 544
f 90 736 546
f 736 256 1464
f 1464 1057 1055
f 256 544 1057
f 544 65 1465
f 1465 665 1056
f 362 1056 1058
f 1056 185 1466
f 1466 473 471
f 17 455 425
f 455 167 1467
f 1467 1061 1059
f 167 647 1061
f 647 47 1468
f 1468 549 1060
f 363 1060 1062
f 1060 261 1469
f 1469 741 739
f 47 599 549
f 599 119 1470
f 1470 1065 1063
f 119 407 1065
f 407 8 1471
f 1471 409 1064
f 364 1064 1066
f 1064 121 1472
f 1472 601 548
f 91 740 550
f 740 260 1473
f 1473 1069 1067
f 260 548 1069
f 548 49 1474
f 1474 649 1068
f 365 1068 1070
f 1068 169 1475
f 1475 457 424
f 24 472 426
f 472 184 1476
f 1476 1073 1071
f 184 664 1073
f 664 64 1477
f 1477 553 1072
f 366 1072 1074
f 1072 265 1478
f 1478 745 743
f 64 616 553
f 616 136 1479
f 1479 1077 1075
f 136 424 1077
f 424 19 1480
f 1480 445 1076
f 367 1076 1078
f 1076 157 1481
f 1481 637 552
f 92 744 554
f 744 264 1482
f 1482 1081 1079
f 264 552 1081
f 552 37 1483
f 1483 589 1080
f 368 1080 1082
f 1080 109 1484
f 1484 397 387
f 4 398 408
f 398 110 1485
f 1485 1085 1083
f 110 590 1085
f 590 38 1486
f 1486 557 1084
f 369 1084 1086
f 1084 269 1487
f 1487 749 747
f 38 638 557
f 638 158 1488
f 1488 1089 1087
f 158 446 1089
f 446 20 1489
f 1489 429 1088
f 370 1088 1090
f 1088 141 1490
f 1490 621 556
f 93 748 558
f 748 268 1491
f 1491 1093 1091
f 268 556 1093
f 556 69 1492
f 1492 669 1092
f 371 1092 1094
f 1092 189 1493
f 1493 477 475
f 20 458 429
f 458 170 1494
f 1494 1097 1095
f 170 650 1097
f 650 50 1495
f 1495 561 1096
f 372 1096 1098
f 1096 273 1496
f 1496 753 751
f 50 602 561
f 602 122 1497
f 1497 1101 1099
f 122 410 1101
f 410 1 1498
f 1498 390 1100
f 373 1100 1102
f 1100 102 1499
f 1499 582 560
f 94 752 562
f 752 272 1500
f 1500 1105 1103
f 272 560 1105
f 560 30 1501
f 1501 630 1104
f 374 1104 1106
f 1104 150 1502
f 1502 438 428
f 25 476 430
f 476 188 1503
f 1503 1109 1107
f 188 668 1109
f 668 68 1504
f 1504 565 1108
f 375 1108 1110
f 1108 277 1505
f 1505 757 755
f 68 620 565
f 620 140 1506
f 1506 1113 1111
f 140 428 1113
f 428 12 1507
f 1507 450 1112
f 376 1112 1114
f 1112 162 1508
f 1508 642 564
f 95 756 566
f 756 276 1509
f 1509 1117 1115
f 276 564 1117
f 564 42 1510
f 1510 594 1116
f 377 1116 1118
f 1116 114 1511
f 1511 402 393
f 5 397 400
f 397 109 1512
f 1512 1121 1119
f 109 589 1121
f 589 37 1513
f 1513 569 1120
f 378 1120 1122
f 1120 281 1514
f 1514 761 759
f 37 637 569
f 637 157 1515
f 1515 1125 1123
f 157 445 1125
f 445 19 1516
f 1516 433 1124
f 379 1124 1126
f 1124 145 1517
f 1517 625 568
f 96 760 570
f 760 280 1518
f 1518 1129 1127
f 280 568 1129
f 568 73 1519
f 1519 673 1128
f 380 1128 1130
f 1128 193 1520
f 1520 481 479
f 19 457 433
f 457 169 1521
f 1521 1133 1131
f 169 649 1133
f 649 49 1522
f 1522 573 1132
f 381 1132 1134
f 1132 285 1523
f 1523 765 763
f 49 601 573
f 601 121 1524
f 1524 1137 1135
f 121 409 1137
f 409 8 1525
f 1525 394 1136
f 382 1136 1138
f 1136 106 1526
f 1526 586 572
f 97 764 574
f 764 284 1527
f 1527 1141 1139
f 284 572 1141
f 572 34 1528
f 1528 634 1140
f 383 1140 1142
f 1140 154 1529
f 1529 442 432
f 26 480 434
f 480 192 1530
f 1530 1145 1143
f 192 672 1145
f 672 72 1531
f 1531 577 1144
f 384 1144 1146
f 1144 289 1532
f 1532 769 767
f 72 624 577
f 624 144 1533
f 1533 1149 1147
f 144 432 1149
f 432 16 1534
f 1534 454 1148
f 385 1148 1150
f 1148 166 1535
f 1535 646 576
f 98 768 578
f 768 288 1536
f 1536 1153 1151
f 288 576 1153
f 576 46 1537
f 1537 598 1152
f 386 1152 1154
f 1152 118 1538
f 1538 406 391
