# Blender v2.69 (sub 0) OBJ File: ''
# www.blender.org
mtllib skydome.mtl
o Sphere
v -0.923880 -0.232224 -0.000000
v -0.906127 -0.232224 -0.180240
v -0.815493 -0.059337 -0.162212
v -0.707107 0.092200 0.000000
v -0.693520 0.092200 -0.137950
v -0.544895 0.216562 -0.108386
v -0.382683 0.308972 0.000000
v -0.375330 0.308972 -0.074658
v -0.191342 0.365878 -0.038060
v -0.980785 -0.419817 -0.000000
v -0.961940 -0.419817 -0.191342
v -0.831470 -0.059337 -0.000000
v -0.555570 0.216562 0.000000
v -1.000000 -0.614907 -0.000000
v -0.980785 -0.614907 -0.195090
v -0.923879 -0.614907 -0.382684
v -0.906127 -0.419817 -0.375330
v -0.853553 -0.232224 -0.353553
v -0.768178 -0.059337 -0.318190
v -0.653281 0.092200 -0.270598
v -0.513280 0.216562 -0.212608
v -0.353553 0.308972 -0.146447
v -0.180240 0.365878 -0.074658
v -0.831469 -0.614907 -0.555570
v -0.815493 -0.419817 -0.544895
v -0.768178 -0.232224 -0.513280
v -0.691342 -0.059337 -0.461940
v -0.587938 0.092200 -0.392848
v -0.461940 0.216562 -0.308658
v -0.318190 0.308972 -0.212608
v -0.162212 0.365878 -0.108387
v -0.707107 -0.614907 -0.707107
v -0.693520 -0.419817 -0.693520
v -0.653281 -0.232224 -0.653282
v -0.587938 -0.059337 -0.587938
v -0.500000 0.092200 -0.500000
v -0.392847 0.216562 -0.392848
v -0.270598 0.308972 -0.270598
v -0.137950 0.365878 -0.137950
v -0.555570 -0.614907 -0.831470
v -0.544895 -0.419817 -0.815493
v -0.513280 -0.232224 -0.768178
v -0.461940 -0.059337 -0.691342
v -0.392847 0.092200 -0.587938
v -0.308658 0.216562 -0.461940
v -0.212607 0.308972 -0.318190
v -0.108386 0.365878 -0.162212
v -0.382683 -0.614907 -0.923880
v -0.375330 -0.419817 -0.906128
v -0.353553 -0.232224 -0.853554
v -0.318189 -0.059337 -0.768178
v -0.270598 0.092200 -0.653282
v -0.212607 0.216562 -0.513280
v -0.146446 0.308972 -0.353554
v -0.074658 0.365878 -0.180240
v -0.195090 -0.614907 -0.980785
v -0.191341 -0.419817 -0.961940
v -0.180240 -0.232224 -0.906128
v -0.162211 -0.059337 -0.815493
v -0.137949 0.092200 -0.693520
v -0.108386 0.216562 -0.544895
v -0.074658 0.308972 -0.375331
v -0.038060 0.365878 -0.191342
v 0.000000 -0.614907 -1.000000
v 0.000000 -0.419817 -0.980785
v 0.000000 -0.232224 -0.923880
v 0.000000 -0.059337 -0.831470
v 0.000000 0.092200 -0.707107
v 0.000000 0.216562 -0.555570
v 0.000000 0.308972 -0.382684
v 0.000000 0.365878 -0.195091
v 0.195091 -0.614907 -0.980785
v 0.191342 -0.419817 -0.961940
v 0.180240 -0.232224 -0.906128
v 0.162212 -0.059337 -0.815493
v 0.137950 0.092200 -0.693520
v 0.108387 0.216562 -0.544895
v 0.074658 0.308972 -0.375331
v 0.038061 0.365878 -0.191342
v 0.382684 -0.614907 -0.923880
v 0.375331 -0.419817 -0.906127
v 0.353554 -0.232224 -0.853554
v 0.318190 -0.059337 -0.768178
v 0.270598 0.092200 -0.653282
v 0.212608 0.216562 -0.513280
v 0.146447 0.308972 -0.353554
v 0.074658 0.365878 -0.180240
v 0.555571 -0.614907 -0.831470
v 0.544895 -0.419817 -0.815493
v 0.513280 -0.232224 -0.768178
v 0.392848 0.092200 -0.587938
v 0.308659 0.216562 -0.461940
v 0.212608 0.308972 -0.318190
v 0.108387 0.365878 -0.162212
v 0.461940 -0.059337 -0.691342
v 0.707107 -0.614907 -0.707107
v 0.693520 -0.419817 -0.693520
v 0.653282 -0.232224 -0.653282
v 0.500000 0.092200 -0.500000
v 0.392848 0.216562 -0.392848
v 0.270599 0.308972 -0.270598
v 0.137950 0.365878 -0.137950
v 0.587938 -0.059337 -0.587938
v 0.831470 -0.614907 -0.555570
v 0.815493 -0.419817 -0.544895
v 0.768178 -0.232224 -0.513280
v 0.587938 0.092200 -0.392848
v 0.461940 0.216562 -0.308658
v 0.318190 0.308972 -0.212608
v 0.162212 0.365878 -0.108386
v 0.691342 -0.059337 -0.461940
v 0.923880 -0.614907 -0.382683
v 0.906128 -0.419817 -0.375330
v 0.853554 -0.232224 -0.353553
v 0.653282 0.092200 -0.270598
v 0.513280 0.216562 -0.212608
v 0.353554 0.308972 -0.146447
v 0.180240 0.365878 -0.074658
v 0.768178 -0.059337 -0.318190
v 0.980786 -0.614907 -0.195090
v 0.961940 -0.419817 -0.191342
v 0.906128 -0.232224 -0.180240
v 0.693520 0.092200 -0.137950
v 0.544896 0.216562 -0.108386
v 0.375331 0.308972 -0.074658
v 0.191342 0.365878 -0.038060
v 0.815493 -0.059337 -0.162212
v 1.000000 -0.614907 -0.000000
v 0.980785 -0.419817 -0.000000
v 0.923880 -0.232224 -0.000000
v 0.707107 0.092200 0.000000
v 0.555571 0.216562 0.000000
v 0.382684 0.308972 0.000000
v 0.195091 0.365878 0.000000
v 0.831470 -0.059337 -0.000000
v 0.980786 -0.614907 0.195090
v 0.961940 -0.419817 0.191342
v 0.906128 -0.232224 0.180240
v 0.693520 0.092200 0.137950
v 0.544896 0.216562 0.108386
v 0.375331 0.308972 0.074658
v 0.191342 0.365878 0.038060
v 0.815493 -0.059337 0.162212
v 0.923880 -0.614907 0.382684
v 0.906127 -0.419817 0.375330
v 0.853554 -0.232224 0.353553
v 0.653282 0.092200 0.270598
v 0.513280 0.216562 0.212608
v 0.353554 0.308972 0.146447
v 0.180240 0.365878 0.074658
v 0.768178 -0.059337 0.318190
v 0.831470 -0.614907 0.555570
v 0.815493 -0.419817 0.544895
v 0.768178 -0.232224 0.513280
v 0.587938 0.092200 0.392847
v 0.461940 0.216562 0.308658
v 0.318190 0.308972 0.212608
v 0.162212 0.365878 0.108386
v 0.691342 -0.059337 0.461940
v 0.707107 -0.614907 0.707107
v 0.693520 -0.419817 0.693520
v 0.653282 -0.232224 0.653281
v 0.500000 0.092200 0.500000
v 0.392848 0.216562 0.392848
v 0.270598 0.308972 0.270598
v 0.137950 0.365878 0.137950
v 0.587938 -0.059337 0.587938
v 0.555570 -0.614907 0.831470
v 0.544895 -0.419817 0.815493
v 0.513280 -0.232224 0.768178
v 0.392848 0.092200 0.587938
v 0.308659 0.216562 0.461940
v 0.212608 0.308972 0.318190
v 0.108387 0.365878 0.162212
v 0.461940 -0.059337 0.691342
v 0.382684 -0.614907 0.923880
v 0.375330 -0.419817 0.906127
v 0.353554 -0.232224 0.853553
v 0.270598 0.092200 0.653281
v 0.212608 0.216562 0.513280
v 0.146447 0.308972 0.353553
v 0.074658 0.365878 0.180240
v 0.318190 -0.059337 0.768177
v 0.195090 -0.614907 0.980785
v 0.191342 -0.419817 0.961939
v 0.180240 -0.232224 0.906127
v 0.137950 0.092200 0.693520
v 0.108387 0.216562 0.544895
v 0.074658 0.308972 0.375330
v 0.038061 0.365878 0.191342
v 0.162212 -0.059337 0.815493
v 0.000000 -0.614907 1.000000
v 0.000000 -0.419817 0.980785
v 0.000000 -0.232224 0.923879
v 0.000000 0.092200 0.707107
v 0.000000 0.216562 0.555570
v 0.000000 0.308972 0.382683
v 0.000000 0.365878 0.195090
v 0.000000 -0.059337 0.831469
v -0.195090 -0.614907 0.980785
v -0.191342 -0.419817 0.961939
v -0.180240 -0.232224 0.906127
v -0.137949 0.092200 0.693520
v -0.108386 0.216562 0.544895
v -0.074658 0.308972 0.375330
v -0.038060 0.365878 0.191342
v -0.162211 -0.059337 0.815493
v -0.382683 -0.614907 0.923879
v -0.375330 -0.419817 0.906127
v -0.353553 -0.232224 0.853553
v -0.270598 0.092200 0.653281
v -0.212607 0.216562 0.513280
v -0.146446 0.308972 0.353553
v -0.074658 0.365878 0.180240
v -0.318189 -0.059337 0.768177
v -0.555570 -0.614907 0.831469
v -0.544895 -0.419817 0.815493
v -0.513280 -0.232224 0.768178
v -0.392847 0.092200 0.587938
v -0.308658 0.216562 0.461940
v -0.212607 0.308972 0.318190
v -0.108386 0.365878 0.162212
v -0.461939 -0.059337 0.691341
v -0.707106 -0.614907 0.707106
v -0.693519 -0.419817 0.693519
v -0.653281 -0.232224 0.653281
v -0.500000 0.092200 0.500000
v -0.392847 0.216562 0.392847
v -0.270598 0.308972 0.270598
v -0.137949 0.365878 0.137950
v -0.587937 -0.059337 0.587937
v -0.831469 -0.614907 0.555570
v -0.815492 -0.419817 0.544895
v -0.768177 -0.232224 0.513280
v -0.587937 0.092200 0.392847
v -0.461939 0.216562 0.308658
v -0.318189 0.308972 0.212607
v -0.162211 0.365878 0.108386
v -0.691341 -0.059337 0.461939
v -0.923879 -0.614907 0.382683
v -0.906127 -0.419817 0.375330
v -0.853553 -0.232224 0.353553
v -0.653281 0.092200 0.270598
v -0.513280 0.216562 0.212607
v -0.353553 0.308972 0.146447
v -0.180240 0.365878 0.074658
v -0.768177 -0.059337 0.318189
v -0.980785 -0.614907 0.195090
v -0.961939 -0.419817 0.191341
v -0.906127 -0.232224 0.180240
v -0.693520 0.092200 0.137950
v -0.544895 0.216562 0.108386
v -0.375330 0.308972 0.074658
v -0.191342 0.365878 0.038060
v -0.815492 -0.059337 0.162211
v -0.195090 0.365878 0.000000
v 0.000000 0.385093 0.000000
vt 0.175207 0.405653
vt 0.163245 0.469361
vt 0.229063 0.475806
vt 0.295933 0.441842
vt 0.288422 0.481589
vt 0.343229 0.486838
vt 0.398619 0.472455
vt 0.394999 0.491672
vt 0.445009 0.496204
vt 0.103565 0.384477
vt 0.088433 0.462044
vt 0.238706 0.424655
vt 0.348742 0.457640
vt 0.018085 0.359216
vt 0.000100 0.453426
vt 0.000100 0.549535
vt 0.088538 0.541180
vt 0.163586 0.534097
vt 0.229417 0.527792
vt 0.288735 0.522007
vt 0.343485 0.516537
vt 0.395184 0.511221
vt 0.445109 0.505932
vt 0.018466 0.644178
vt 0.103864 0.618975
vt 0.176320 0.597592
vt 0.239762 0.578726
vt 0.296850 0.561591
vt 0.349494 0.545617
vt 0.399167 0.530359
vt 0.447102 0.515453
vt 0.054789 0.733812
vt 0.133942 0.692525
vt 0.201060 0.657516
vt 0.259743 0.626730
vt 0.312471 0.598863
vt 0.361030 0.572979
vt 0.406794 0.548358
vt 0.450911 0.524404
vt 0.107893 0.814981
vt 0.177750 0.759029
vt 0.236955 0.711615
vt 0.288651 0.670003
vt 0.335026 0.632419
vt 0.377662 0.597589
vt 0.417778 0.564533
vt 0.456392 0.532442
vt 0.175897 0.884509
vt 0.233722 0.815915
vt 0.282716 0.757815
vt 0.325433 0.706899
vt 0.363680 0.660986
vt 0.398766 0.618509
vt 0.431703 0.578266
vt 0.463335 0.539260
vt 0.256298 0.939645
vt 0.299800 0.860954
vt 0.336656 0.794324
vt 0.368729 0.735994
vt 0.397366 0.683466
vt 0.423550 0.634939
vt 0.448041 0.589031
vt 0.471475 0.544596
vt 0.346084 0.978185
vt 0.373513 0.892358
vt 0.396759 0.819701
vt 0.416915 0.756151
vt 0.434816 0.698986
vt 0.451076 0.646242
vt 0.466170 0.596412
vt 0.480502 0.548244
vt 0.441853 0.998560
vt 0.452075 0.908855
vt 0.460756 0.832927
vt 0.468173 0.766565
vt 0.474615 0.706931
vt 0.480300 0.651975
vt 0.485401 0.600121
vt 0.490070 0.550063
vt 0.539954 0.999900
vt 0.532495 0.909744
vt 0.526210 0.833441
vt 0.520551 0.766800
vt 0.515245 0.706973
vt 0.510106 0.651904
vt 0.504998 0.600011
vt 0.499812 0.549980
vt 0.636629 0.982067
vt 0.611694 0.894920
vt 0.590619 0.821171
vt 0.555151 0.699084
vt 0.539353 0.646017
vt 0.524209 0.596078
vt 0.509355 0.547998
vt 0.572045 0.756807
vt 0.728161 0.945658
vt 0.686626 0.864880
vt 0.651500 0.796531
vt 0.592796 0.683541
vt 0.566915 0.634524
vt 0.542293 0.588467
vt 0.518330 0.544191
vt 0.620671 0.736931
vt 0.811015 0.891984
vt 0.754390 0.820708
vt 0.706497 0.760414
vt 0.626721 0.660916
vt 0.591723 0.617855
vt 0.558554 0.577464
vt 0.526391 0.538703
vt 0.664545 0.707896
vt 0.881969 0.823014
vt 0.812343 0.764030
vt 0.753460 0.714158
vt 0.655602 0.632060
vt 0.612812 0.596639
vt 0.572358 0.563487
vt 0.533228 0.531744
vt 0.701952 0.670786
vt 0.938234 0.741300
vt 0.858198 0.696955
vt 0.790529 0.659497
vt 0.678299 0.598068
vt 0.629356 0.571686
vt 0.583169 0.547073
vt 0.538575 0.523581
vt 0.731412 0.627001
vt 0.977552 0.649881
vt 0.890101 0.622004
vt 0.816205 0.598503
vt 0.693908 0.560246
vt 0.640699 0.543956
vt 0.590564 0.528854
vt 0.542225 0.514529
vt 0.751738 0.578215
vt 0.998257 0.552175
vt 0.906701 0.542019
vt 0.829398 0.533518
vt 0.701793 0.520061
vt 0.646391 0.514524
vt 0.594250 0.509533
vt 0.544035 0.504937
vt 0.762084 0.526316
vt 0.999321 0.451863
vt 0.907200 0.460080
vt 0.829476 0.467090
vt 0.701622 0.479086
vt 0.646198 0.484536
vt 0.594083 0.489860
vt 0.543935 0.495176
vt 0.761989 0.473347
vt 0.980336 0.352818
vt 0.891412 0.379409
vt 0.816285 0.401926
vt 0.693390 0.438935
vt 0.640124 0.455165
vt 0.590066 0.470600
vt 0.541929 0.485623
vt 0.751416 0.421428
vt 0.941526 0.259157
vt 0.859873 0.303162
vt 0.790179 0.340981
vt 0.677425 0.401187
vt 0.628406 0.427558
vt 0.582355 0.452502
vt 0.538095 0.476647
vt 0.730804 0.372626
vt 0.884116 0.175609
vt 0.813115 0.235242
vt 0.753357 0.285856
vt 0.654373 0.367324
vt 0.611506 0.402795
vt 0.571253 0.436268
vt 0.532580 0.468595
vt 0.701097 0.328809
vt 0.811518 0.105957
vt 0.754169 0.178192
vt 0.706051 0.239325
vt 0.625138 0.338675
vt 0.590092 0.381840
vt 0.557194 0.422527
vt 0.525600 0.461778
vt 0.663347 0.291746
vt 0.727143 0.052478
vt 0.685448 0.134137
vt 0.650544 0.203230
vt 0.590885 0.316353
vt 0.565008 0.365503
vt 0.540728 0.411809
vt 0.517426 0.456458
vt 0.619089 0.262905
vt 0.634495 0.016849
vt 0.609766 0.104601
vt 0.589197 0.178864
vt 0.552973 0.301203
vt 0.537239 0.354404
vt 0.522497 0.404522
vt 0.508373 0.452839
vt 0.570122 0.243367
vt 0.537240 0.000100
vt 0.530132 0.090508
vt 0.524473 0.167020
vt 0.512892 0.293777
vt 0.507870 0.348956
vt 0.503209 0.400941
vt 0.498793 0.451057
vt 0.518390 0.233816
vt 0.439134 0.002556
vt 0.449632 0.092185
vt 0.458875 0.167995
vt 0.472198 0.294323
vt 0.478038 0.349350
vt 0.483609 0.401195
vt 0.489053 0.451179
vt 0.465896 0.234539
vt 0.343867 0.023787
vt 0.371312 0.109385
vt 0.394831 0.181589
vt 0.432454 0.302785
vt 0.448894 0.355551
vt 0.464452 0.405264
vt 0.479528 0.453197
vt 0.414634 0.245441
vt 0.254811 0.062640
vt 0.298129 0.141383
vt 0.334514 0.207118
vt 0.395187 0.318811
vt 0.421552 0.367300
vt 0.446471 0.412983
vt 0.470584 0.457032
vt 0.366568 0.266088
vt 0.174610 0.117514
vt 0.232175 0.186345
vt 0.280984 0.244591
vt 0.361812 0.341767
vt 0.397053 0.384131
vt 0.430351 0.424048
vt 0.462562 0.462533
vt 0.323589 0.295754
vt 0.106246 0.187311
vt 0.176039 0.243412
vt 0.235980 0.291437
vt 0.333581 0.370735
vt 0.376320 0.405384
vt 0.416704 0.438028
vt 0.455768 0.469489
vt 0.287253 0.333124
vt 0.053451 0.269379
vt 0.132745 0.310663
vt 0.199858 0.345443
vt 0.311546 0.404577
vt 0.360132 0.430234
vt 0.406043 0.454384
vt 0.450460 0.477632
vt 0.258833 0.376680
vt 0.446806 0.486643
vt 0.494477 0.500566
usemtl None
s 1
f 1/1 2/2 3/3
f 4/4 5/5 6/6
f 7/7 8/8 9/9
f 10/10 11/11 2/2
f 12/12 3/3 5/5
f 13/13 6/6 8/8
f 14/14 15/15 11/11
f 15/15 16/16 17/17
f 2/2 18/18 19/19
f 5/5 20/20 21/21
f 8/8 22/22 23/23
f 11/11 17/17 18/18
f 3/3 19/19 20/20
f 6/6 21/21 22/22
f 16/16 24/24 25/25
f 18/18 26/26 27/27
f 20/20 28/28 29/29
f 22/22 30/30 31/31
f 17/17 25/25 26/26
f 19/19 27/27 28/28
f 21/21 29/29 30/30
f 24/24 32/32 33/33
f 26/26 34/34 35/35
f 28/28 36/36 37/37
f 30/30 38/38 39/39
f 25/25 33/33 34/34
f 27/27 35/35 36/36
f 29/29 37/37 38/38
f 32/32 40/40 41/41
f 34/34 42/42 43/43
f 36/36 44/44 45/45
f 38/38 46/46 47/47
f 33/33 41/41 42/42
f 35/35 43/43 44/44
f 37/37 45/45 46/46
f 40/40 48/48 49/49
f 42/42 50/50 51/51
f 44/44 52/52 53/53
f 46/46 54/54 55/55
f 41/41 49/49 50/50
f 43/43 51/51 52/52
f 45/45 53/53 54/54
f 48/48 56/56 57/57
f 50/50 58/58 59/59
f 52/52 60/60 61/61
f 54/54 62/62 63/63
f 49/49 57/57 58/58
f 51/51 59/59 60/60
f 53/53 61/61 62/62
f 56/56 64/64 65/65
f 58/58 66/66 67/67
f 60/60 68/68 69/69
f 62/62 70/70 71/71
f 57/57 65/65 66/66
f 59/59 67/67 68/68
f 61/61 69/69 70/70
f 64/64 72/72 73/73
f 66/66 74/74 75/75
f 68/68 76/76 77/77
f 70/70 78/78 79/79
f 65/65 73/73 74/74
f 67/67 75/75 76/76
f 69/69 77/77 78/78
f 72/72 80/80 81/81
f 74/74 82/82 83/83
f 76/76 84/84 85/85
f 78/78 86/86 87/87
f 73/73 81/81 82/82
f 75/75 83/83 84/84
f 77/77 85/85 86/86
f 80/80 88/88 89/89
f 82/82 90/90 83/83
f 84/84 91/91 92/92
f 86/86 93/93 94/94
f 81/81 89/89 90/90
f 83/83 95/95 91/91
f 85/85 92/92 93/93
f 88/88 96/96 97/97
f 90/90 98/98 95/95
f 91/91 99/99 100/100
f 93/93 101/101 102/102
f 89/89 97/97 98/98
f 95/95 103/103 99/99
f 92/92 100/100 101/101
f 96/96 104/104 105/105
f 98/98 106/106 103/103
f 99/99 107/107 108/108
f 101/101 109/109 110/110
f 97/97 105/105 106/106
f 103/103 111/111 107/107
f 100/100 108/108 109/109
f 104/104 112/112 113/113
f 106/106 114/114 111/111
f 107/107 115/115 116/116
f 109/109 117/117 118/118
f 105/105 113/113 114/114
f 111/111 119/119 115/115
f 108/108 116/116 117/117
f 112/112 120/120 121/121
f 114/114 122/122 119/119
f 115/115 123/123 124/124
f 117/117 125/125 126/126
f 113/113 121/121 122/122
f 119/119 127/127 123/123
f 116/116 124/124 125/125
f 120/120 128/128 129/129
f 122/122 130/130 127/127
f 123/123 131/131 132/132
f 125/125 133/133 134/134
f 121/121 129/129 130/130
f 127/127 135/135 131/131
f 124/124 132/132 133/133
f 128/128 136/136 137/137
f 130/130 138/138 135/135
f 131/131 139/139 140/140
f 133/133 141/141 142/142
f 129/129 137/137 138/138
f 135/135 143/143 139/139
f 132/132 140/140 141/141
f 136/136 144/144 145/145
f 138/138 146/146 143/143
f 139/139 147/147 148/148
f 141/141 149/149 150/150
f 137/137 145/145 146/146
f 143/143 151/151 147/147
f 140/140 148/148 149/149
f 144/144 152/152 153/153
f 146/146 154/154 151/151
f 147/147 155/155 156/156
f 149/149 157/157 158/158
f 145/145 153/153 154/154
f 151/151 159/159 155/155
f 148/148 156/156 157/157
f 152/152 160/160 161/161
f 154/154 162/162 159/159
f 155/155 163/163 164/164
f 157/157 165/165 166/166
f 153/153 161/161 162/162
f 159/159 167/167 163/163
f 156/156 164/164 165/165
f 160/160 168/168 169/169
f 162/162 170/170 167/167
f 163/163 171/171 172/172
f 165/165 173/173 174/174
f 161/161 169/169 170/170
f 167/167 175/175 171/171
f 164/164 172/172 173/173
f 168/168 176/176 177/177
f 170/170 178/178 175/175
f 171/171 179/179 180/180
f 173/173 181/181 182/182
f 169/169 177/177 178/178
f 175/175 183/183 179/179
f 172/172 180/180 181/181
f 176/176 184/184 185/185
f 178/178 186/186 183/183
f 179/179 187/187 188/188
f 181/181 189/189 190/190
f 177/177 185/185 186/186
f 183/183 191/191 187/187
f 180/180 188/188 189/189
f 184/184 192/192 193/193
f 186/186 194/194 191/191
f 187/187 195/195 196/196
f 189/189 197/197 198/198
f 185/185 193/193 194/194
f 191/191 199/199 195/195
f 188/188 196/196 197/197
f 192/192 200/200 201/201
f 194/194 202/202 199/199
f 195/195 203/203 204/204
f 197/197 205/205 206/206
f 193/193 201/201 202/202
f 199/199 207/207 203/203
f 196/196 204/204 205/205
f 200/200 208/208 209/209
f 202/202 210/210 207/207
f 203/203 211/211 212/212
f 205/205 213/213 214/214
f 201/201 209/209 210/210
f 207/207 215/215 211/211
f 204/204 212/212 213/213
f 208/208 216/216 217/217
f 210/210 218/218 215/215
f 211/211 219/219 220/220
f 213/213 221/221 222/222
f 209/209 217/217 218/218
f 215/215 223/223 219/219
f 212/212 220/220 221/221
f 216/216 224/224 225/225
f 218/218 226/226 223/223
f 219/219 227/227 228/228
f 221/221 229/229 230/230
f 217/217 225/225 226/226
f 223/223 231/231 227/227
f 220/220 228/228 229/229
f 224/224 232/232 233/233
f 226/226 234/234 231/231
f 227/227 235/235 236/236
f 229/229 237/237 238/238
f 225/225 233/233 234/234
f 231/231 239/239 235/235
f 228/228 236/236 237/237
f 232/232 240/240 241/241
f 234/234 242/242 239/239
f 235/235 243/243 244/244
f 237/237 245/245 246/246
f 233/233 241/241 242/242
f 239/239 247/247 243/243
f 236/236 244/244 245/245
f 240/240 248/248 249/249
f 242/242 250/250 247/247
f 243/243 251/251 252/252
f 245/245 253/253 254/254
f 241/241 249/249 250/250
f 247/247 255/255 251/251
f 244/244 252/252 253/253
f 256/256 9/9 257/257
f 9/9 23/23 257/257
f 23/23 31/31 257/257
f 31/31 39/39 257/257
f 39/39 47/47 257/257
f 47/47 55/55 257/257
f 55/55 63/63 257/257
f 63/63 71/71 257/257
f 71/71 79/79 257/257
f 79/79 87/87 257/257
f 87/87 94/94 257/257
f 94/94 102/102 257/257
f 102/102 110/110 257/257
f 110/110 118/118 257/257
f 118/118 126/126 257/257
f 126/126 134/134 257/257
f 134/134 142/142 257/257
f 142/142 150/150 257/257
f 150/150 158/158 257/257
f 158/158 166/166 257/257
f 166/166 174/174 257/257
f 174/174 182/182 257/257
f 182/182 190/190 257/257
f 190/190 198/198 257/257
f 198/198 206/206 257/257
f 206/206 214/214 257/257
f 214/214 222/222 257/257
f 222/222 230/230 257/257
f 230/230 238/238 257/257
f 238/238 246/246 257/257
f 246/246 254/254 257/257
f 254/254 256/256 257/257
f 248/248 14/14 10/10
f 250/250 1/1 12/12
f 251/251 4/4 13/13
f 253/253 7/7 256/256
f 10/10 1/1 249/249
f 255/255 12/12 4/4
f 252/252 13/13 7/7
f 12/12 1/1 3/3
f 13/13 4/4 6/6
f 256/256 7/7 9/9
f 1/1 10/10 2/2
f 4/4 12/12 5/5
f 7/7 13/13 8/8
f 10/10 14/14 11/11
f 11/11 15/15 17/17
f 3/3 2/2 19/19
f 6/6 5/5 21/21
f 9/9 8/8 23/23
f 2/2 11/11 18/18
f 5/5 3/3 20/20
f 8/8 6/6 22/22
f 17/17 16/16 25/25
f 19/19 18/18 27/27
f 21/21 20/20 29/29
f 23/23 22/22 31/31
f 18/18 17/17 26/26
f 20/20 19/19 28/28
f 22/22 21/21 30/30
f 25/25 24/24 33/33
f 27/27 26/26 35/35
f 29/29 28/28 37/37
f 31/31 30/30 39/39
f 26/26 25/25 34/34
f 28/28 27/27 36/36
f 30/30 29/29 38/38
f 33/33 32/32 41/41
f 35/35 34/34 43/43
f 37/37 36/36 45/45
f 39/39 38/38 47/47
f 34/34 33/33 42/42
f 36/36 35/35 44/44
f 38/38 37/37 46/46
f 41/41 40/40 49/49
f 43/43 42/42 51/51
f 45/45 44/44 53/53
f 47/47 46/46 55/55
f 42/42 41/41 50/50
f 44/44 43/43 52/52
f 46/46 45/45 54/54
f 49/49 48/48 57/57
f 51/51 50/50 59/59
f 53/53 52/52 61/61
f 55/55 54/54 63/63
f 50/50 49/49 58/58
f 52/52 51/51 60/60
f 54/54 53/53 62/62
f 57/57 56/56 65/65
f 59/59 58/58 67/67
f 61/61 60/60 69/69
f 63/63 62/62 71/71
f 58/58 57/57 66/66
f 60/60 59/59 68/68
f 62/62 61/61 70/70
f 65/65 64/64 73/73
f 67/67 66/66 75/75
f 69/69 68/68 77/77
f 71/71 70/70 79/79
f 66/66 65/65 74/74
f 68/68 67/67 76/76
f 70/70 69/69 78/78
f 73/73 72/72 81/81
f 75/75 74/74 83/83
f 77/77 76/76 85/85
f 79/79 78/78 87/87
f 74/74 73/73 82/82
f 76/76 75/75 84/84
f 78/78 77/77 86/86
f 81/81 80/80 89/89
f 90/90 95/95 83/83
f 85/85 84/84 92/92
f 87/87 86/86 94/94
f 82/82 81/81 90/90
f 84/84 83/83 91/91
f 86/86 85/85 93/93
f 89/89 88/88 97/97
f 98/98 103/103 95/95
f 92/92 91/91 100/100
f 94/94 93/93 102/102
f 90/90 89/89 98/98
f 91/91 95/95 99/99
f 93/93 92/92 101/101
f 97/97 96/96 105/105
f 106/106 111/111 103/103
f 100/100 99/99 108/108
f 102/102 101/101 110/110
f 98/98 97/97 106/106
f 99/99 103/103 107/107
f 101/101 100/100 109/109
f 105/105 104/104 113/113
f 114/114 119/119 111/111
f 108/108 107/107 116/116
f 110/110 109/109 118/118
f 106/106 105/105 114/114
f 107/107 111/111 115/115
f 109/109 108/108 117/117
f 113/113 112/112 121/121
f 122/122 127/127 119/119
f 116/116 115/115 124/124
f 118/118 117/117 126/126
f 114/114 113/113 122/122
f 115/115 119/119 123/123
f 117/117 116/116 125/125
f 121/121 120/120 129/129
f 130/130 135/135 127/127
f 124/124 123/123 132/132
f 126/126 125/125 134/134
f 122/122 121/121 130/130
f 123/123 127/127 131/131
f 125/125 124/124 133/133
f 129/129 128/128 137/137
f 138/138 143/143 135/135
f 132/132 131/131 140/140
f 134/134 133/133 142/142
f 130/130 129/129 138/138
f 131/131 135/135 139/139
f 133/133 132/132 141/141
f 137/137 136/136 145/145
f 146/146 151/151 143/143
f 140/140 139/139 148/148
f 142/142 141/141 150/150
f 138/138 137/137 146/146
f 139/139 143/143 147/147
f 141/141 140/140 149/149
f 145/145 144/144 153/153
f 154/154 159/159 151/151
f 148/148 147/147 156/156
f 150/150 149/149 158/158
f 146/146 145/145 154/154
f 147/147 151/151 155/155
f 149/149 148/148 157/157
f 153/153 152/152 161/161
f 162/162 167/167 159/159
f 156/156 155/155 164/164
f 158/158 157/157 166/166
f 154/154 153/153 162/162
f 155/155 159/159 163/163
f 157/157 156/156 165/165
f 161/161 160/160 169/169
f 170/170 175/175 167/167
f 164/164 163/163 172/172
f 166/166 165/165 174/174
f 162/162 161/161 170/170
f 163/163 167/167 171/171
f 165/165 164/164 173/173
f 169/169 168/168 177/177
f 178/178 183/183 175/175
f 172/172 171/171 180/180
f 174/174 173/173 182/182
f 170/170 169/169 178/178
f 171/171 175/175 179/179
f 173/173 172/172 181/181
f 177/177 176/176 185/185
f 186/186 191/191 183/183
f 180/180 179/179 188/188
f 182/182 181/181 190/190
f 178/178 177/177 186/186
f 179/179 183/183 187/187
f 181/181 180/180 189/189
f 185/185 184/184 193/193
f 194/194 199/199 191/191
f 188/188 187/187 196/196
f 190/190 189/189 198/198
f 186/186 185/185 194/194
f 187/187 191/191 195/195
f 189/189 188/188 197/197
f 193/193 192/192 201/201
f 202/202 207/207 199/199
f 196/196 195/195 204/204
f 198/198 197/197 206/206
f 194/194 193/193 202/202
f 195/195 199/199 203/203
f 197/197 196/196 205/205
f 201/201 200/200 209/209
f 210/210 215/215 207/207
f 204/204 203/203 212/212
f 206/206 205/205 214/214
f 202/202 201/201 210/210
f 203/203 207/207 211/211
f 205/205 204/204 213/213
f 209/209 208/208 217/217
f 218/218 223/223 215/215
f 212/212 211/211 220/220
f 214/214 213/213 222/222
f 210/210 209/209 218/218
f 211/211 215/215 219/219
f 213/213 212/212 221/221
f 217/217 216/216 225/225
f 226/226 231/231 223/223
f 220/220 219/219 228/228
f 222/222 221/221 230/230
f 218/218 217/217 226/226
f 219/219 223/223 227/227
f 221/221 220/220 229/229
f 225/225 224/224 233/233
f 234/234 239/239 231/231
f 228/228 227/227 236/236
f 230/230 229/229 238/238
f 226/226 225/225 234/234
f 227/227 231/231 235/235
f 229/229 228/228 237/237
f 233/233 232/232 241/241
f 242/242 247/247 239/239
f 236/236 235/235 244/244
f 238/238 237/237 246/246
f 234/234 233/233 242/242
f 235/235 239/239 243/243
f 237/237 236/236 245/245
f 241/241 240/240 249/249
f 250/250 255/255 247/247
f 244/244 243/243 252/252
f 246/246 245/245 254/254
f 242/242 241/241 250/250
f 243/243 247/247 251/251
f 245/245 244/244 253/253
f 249/249 248/248 10/10
f 255/255 250/250 12/12
f 252/252 251/251 13/13
f 254/254 253/253 256/256
f 249/249 1/1 250/250
f 251/251 255/255 4/4
f 253/253 252/252 7/7
